02-09/SDS814X_HD_CSV_C1_1.csv

Record Length,Analog:100000
Sample Interval,2.000000E-04
Vertical Units,V,
Vertical Scale,+2.000000E-02
Vertical Offset,+0.000000E+00
Horizontal Units,s
Horizontal Scale,+2.000000E+00
Model,SDS814X HD
Serial Number,SDS08A0Q809397
Software Version,3.8.12.1.1.3.8
Source,CH1
Second,Value
-2.4000000000E-01,+1.125000E-03
-2.3980000000E-01,+1.416667E-03
-2.3960000000E-01,+9.999999E-04
-2.3940000000E-01,+1.291667E-03
-2.3920000000E-01,+1.375000E-03
-2.3900000000E-01,+1.375000E-03
-2.3880000000E-01,+1.291667E-03
-2.3860000000E-01,+1.375000E-03
-2.3840000000E-01,+1.500000E-03
-2.3820000000E-01,+1.041667E-03
-2.3800000000E-01,+1.541667E-03
-2.3780000000E-01,+1.208333E-03
-2.3760000000E-01,+1.458333E-03
-2.3740000000E-01,+1.416667E-03
-2.3720000000E-01,+1.375000E-03
-2.3700000000E-01,+1.166667E-03
-2.3680000000E-01,+1.375000E-03
-2.3660000000E-01,+1.166667E-03
-2.3640000000E-01,+1.375000E-03
-2.3620000000E-01,+1.500000E-03
-2.3600000000E-01,+1.166667E-03
-2.3580000000E-01,+1.208333E-03
-2.3560000000E-01,+1.458333E-03
-2.3540000000E-01,+1.416667E-03
-2.3520000000E-01,+1.375000E-03
-2.3500000000E-01,+1.041667E-03
-2.3480000000E-01,+1.666667E-03
-2.3460000000E-01,+1.333333E-03
-2.3440000000E-01,+1.541667E-03
-2.3420000000E-01,+1.500000E-03
-2.3400000000E-01,+1.416667E-03
-2.3380000000E-01,+1.333333E-03
-2.3360000000E-01,+1.416667E-03
-2.3340000000E-01,+1.500000E-03
-2.3320000000E-01,+1.375000E-03
-2.3300000000E-01,+1.333333E-03
-2.3280000000E-01,+1.416667E-03
-2.3260000000E-01,+1.500000E-03
-2.3240000000E-01,+2.041667E-03
-2.3220000000E-01,+1.250000E-03
-2.3200000000E-01,+1.625000E-03
-2.3180000000E-01,+1.500000E-03
-2.3160000000E-01,+9.999999E-04
-2.3140000000E-01,+1.333333E-03
-2.3120000000E-01,+1.625000E-03
-2.3100000000E-01,+1.916667E-03
-2.3080000000E-01,+1.083333E-03
-2.3060000000E-01,+1.750000E-03
-2.3040000000E-01,+1.291667E-03
-2.3020000000E-01,+1.375000E-03
-2.3000000000E-01,+2.041667E-03
-2.2980000000E-01,+1.875000E-03
-2.2960000000E-01,+1.333333E-03
-2.2940000000E-01,+1.208333E-03
-2.2920000000E-01,+1.250000E-03
-2.2900000000E-01,+1.541667E-03
-2.2880000000E-01,+1.708333E-03
-2.2860000000E-01,+1.250000E-03
-2.2840000000E-01,+1.208333E-03
-2.2820000000E-01,+1.166667E-03
-2.2800000000E-01,+1.375000E-03
-2.2780000000E-01,+1.791667E-03
-2.2760000000E-01,+1.250000E-03
-2.2740000000E-01,+1.750000E-03
-2.2720000000E-01,+1.291667E-03
-2.2700000000E-01,+1.458333E-03
-2.2680000000E-01,+1.250000E-03
-2.2660000000E-01,+1.541667E-03
-2.2640000000E-01,+1.750000E-03
-2.2620000000E-01,+1.250000E-03
-2.2600000000E-01,+1.500000E-03
-2.2580000000E-01,+1.500000E-03
-2.2560000000E-01,+1.458333E-03
-2.2540000000E-01,+1.500000E-03
-2.2520000000E-01,+1.583333E-03
-2.2500000000E-01,+1.291667E-03
-2.2480000000E-01,+1.666667E-03
-2.2460000000E-01,+1.125000E-03
-2.2440000000E-01,+1.541667E-03
-2.2420000000E-01,+1.500000E-03
-2.2400000000E-01,+1.291667E-03
-2.2380000000E-01,+1.250000E-03
-2.2360000000E-01,+1.500000E-03
-2.2340000000E-01,+1.541667E-03
-2.2320000000E-01,+1.416667E-03
-2.2300000000E-01,+1.375000E-03
-2.2280000000E-01,+1.375000E-03
-2.2260000000E-01,+1.458333E-03
-2.2240000000E-01,+1.208333E-03
-2.2220000000E-01,+1.541667E-03
-2.2200000000E-01,+1.958333E-03
-2.2180000000E-01,+1.416667E-03
-2.2160000000E-01,+1.250000E-03
-2.2140000000E-01,+1.666667E-03
-2.2120000000E-01,+1.750000E-03
-2.2100000000E-01,+1.875000E-03
-2.2080000000E-01,+1.375000E-03
-2.2060000000E-01,+1.458333E-03
-2.2040000000E-01,+1.416667E-03
-2.2020000000E-01,+1.500000E-03
-2.2000000000E-01,+1.625000E-03
-2.1980000000E-01,+1.541667E-03
-2.1960000000E-01,+1.625000E-03
-2.1940000000E-01,+1.458333E-03
-2.1920000000E-01,+1.208333E-03
-2.1900000000E-01,+1.583333E-03
-2.1880000000E-01,+1.583333E-03
-2.1860000000E-01,+1.541667E-03
-2.1840000000E-01,+2.041667E-03
-2.1820000000E-01,+1.250000E-03
-2.1800000000E-01,+1.500000E-03
-2.1780000000E-01,+1.500000E-03
-2.1760000000E-01,+1.375000E-03
-2.1740000000E-01,+1.375000E-03
-2.1720000000E-01,+1.708333E-03
-2.1700000000E-01,+1.416667E-03
-2.1680000000E-01,+1.250000E-03
-2.1660000000E-01,+1.666667E-03
-2.1640000000E-01,+1.500000E-03
-2.1620000000E-01,+1.541667E-03
-2.1600000000E-01,+8.333334E-04
-2.1580000000E-01,+1.541667E-03
-2.1560000000E-01,+1.541667E-03
-2.1540000000E-01,+1.958333E-03
-2.1520000000E-01,+1.375000E-03
-2.1500000000E-01,+1.375000E-03
-2.1480000000E-01,+1.333333E-03
-2.1460000000E-01,+1.625000E-03
-2.1440000000E-01,+1.666667E-03
-2.1420000000E-01,+1.750000E-03
-2.1400000000E-01,+1.208333E-03
-2.1380000000E-01,+1.500000E-03
-2.1360000000E-01,+1.375000E-03
-2.1340000000E-01,+1.500000E-03
-2.1320000000E-01,+1.666667E-03
-2.1300000000E-01,+1.625000E-03
-2.1280000000E-01,+1.541667E-03
-2.1260000000E-01,+1.916667E-03
-2.1240000000E-01,+1.166667E-03
-2.1220000000E-01,+1.750000E-03
-2.1200000000E-01,+1.041667E-03
-2.1180000000E-01,+1.583333E-03
-2.1160000000E-01,+1.250000E-03
-2.1140000000E-01,+1.666667E-03
-2.1120000000E-01,+1.541667E-03
-2.1100000000E-01,+1.666667E-03
-2.1080000000E-01,+1.625000E-03
-2.1060000000E-01,+1.250000E-03
-2.1040000000E-01,+1.291667E-03
-2.1020000000E-01,+1.416667E-03
-2.1000000000E-01,+1.666667E-03
-2.0980000000E-01,+1.416667E-03
-2.0960000000E-01,+1.666667E-03
-2.0940000000E-01,+1.125000E-03
-2.0920000000E-01,+1.125000E-03
-2.0900000000E-01,+1.833333E-03
-2.0880000000E-01,+1.916667E-03
-2.0860000000E-01,+1.416667E-03
-2.0840000000E-01,+1.375000E-03
-2.0820000000E-01,+1.666667E-03
-2.0800000000E-01,+1.500000E-03
-2.0780000000E-01,+1.500000E-03
-2.0760000000E-01,+1.666667E-03
-2.0740000000E-01,+1.916667E-03
-2.0720000000E-01,+1.500000E-03
-2.0700000000E-01,+1.333333E-03
-2.0680000000E-01,+1.708333E-03
-2.0660000000E-01,+1.583333E-03
-2.0640000000E-01,+1.833333E-03
-2.0620000000E-01,+1.416667E-03
-2.0600000000E-01,+1.125000E-03
-2.0580000000E-01,+1.583333E-03
-2.0560000000E-01,+1.583333E-03
-2.0540000000E-01,+1.583333E-03
-2.0520000000E-01,+1.750000E-03
-2.0500000000E-01,+1.458333E-03
-2.0480000000E-01,+1.583333E-03
-2.0460000000E-01,+1.291667E-03
-2.0440000000E-01,+1.833333E-03
-2.0420000000E-01,+1.708333E-03
-2.0400000000E-01,+1.666667E-03
-2.0380000000E-01,+1.291667E-03
-2.0360000000E-01,+1.208333E-03
-2.0340000000E-01,+1.375000E-03
-2.0320000000E-01,+1.708333E-03
-2.0300000000E-01,+1.500000E-03
-2.0280000000E-01,+1.666667E-03
-2.0260000000E-01,+1.583333E-03
-2.0240000000E-01,+1.625000E-03
-2.0220000000E-01,+2.041667E-03
-2.0200000000E-01,+1.208333E-03
-2.0180000000E-01,+1.541667E-03
-2.0160000000E-01,+1.750000E-03
-2.0140000000E-01,+1.541667E-03
-2.0120000000E-01,+1.500000E-03
-2.0100000000E-01,+1.833333E-03
-2.0080000000E-01,+2.083333E-03
-2.0060000000E-01,+1.750000E-03
-2.0040000000E-01,+2.000000E-03
-2.0020000000E-01,+1.666667E-03
-2.0000000000E-01,+1.708333E-03
-1.9980000000E-01,+2.083333E-03
-1.9960000000E-01,+1.500000E-03
-1.9940000000E-01,+1.625000E-03
-1.9920000000E-01,+1.541667E-03
-1.9900000000E-01,+1.791667E-03
-1.9880000000E-01,+1.791667E-03
-1.9860000000E-01,+1.708333E-03
-1.9840000000E-01,+1.583333E-03
-1.9820000000E-01,+1.375000E-03
-1.9800000000E-01,+1.666667E-03
-1.9780000000E-01,+1.375000E-03
-1.9760000000E-01,+1.958333E-03
-1.9740000000E-01,+2.125000E-03
-1.9720000000E-01,+1.416667E-03
-1.9700000000E-01,+1.916667E-03
-1.9680000000E-01,+1.750000E-03
-1.9660000000E-01,+1.833333E-03
-1.9640000000E-01,+1.458333E-03
-1.9620000000E-01,+1.875000E-03
-1.9600000000E-01,+1.250000E-03
-1.9580000000E-01,+1.416667E-03
-1.9560000000E-01,+1.416667E-03
-1.9540000000E-01,+2.208333E-03
-1.9520000000E-01,+1.500000E-03
-1.9500000000E-01,+1.541667E-03
-1.9480000000E-01,+1.458333E-03
-1.9460000000E-01,+1.333333E-03
-1.9440000000E-01,+1.875000E-03
-1.9420000000E-01,+1.916667E-03
-1.9400000000E-01,+1.666667E-03
-1.9380000000E-01,+1.708333E-03
-1.9360000000E-01,+1.708333E-03
-1.9340000000E-01,+1.666667E-03
-1.9320000000E-01,+1.916667E-03
-1.9300000000E-01,+1.541667E-03
-1.9280000000E-01,+1.541667E-03
-1.9260000000E-01,+1.750000E-03
-1.9240000000E-01,+1.625000E-03
-1.9220000000E-01,+1.166667E-03
-1.9200000000E-01,+2.000000E-03
-1.9180000000E-01,+1.750000E-03
-1.9160000000E-01,+1.333333E-03
-1.9140000000E-01,+1.416667E-03
-1.9120000000E-01,+1.208333E-03
-1.9100000000E-01,+1.791667E-03
-1.9080000000E-01,+2.000000E-03
-1.9060000000E-01,+1.666667E-03
-1.9040000000E-01,+1.583333E-03
-1.9020000000E-01,+1.208333E-03
-1.9000000000E-01,+2.000000E-03
-1.8980000000E-01,+1.916667E-03
-1.8960000000E-01,+1.500000E-03
-1.8940000000E-01,+1.791667E-03
-1.8920000000E-01,+1.958333E-03
-1.8900000000E-01,+1.208333E-03
-1.8880000000E-01,+1.625000E-03
-1.8860000000E-01,+1.666667E-03
-1.8840000000E-01,+1.500000E-03
-1.8820000000E-01,+1.416667E-03
-1.8800000000E-01,+1.416667E-03
-1.8780000000E-01,+1.625000E-03
-1.8760000000E-01,+1.958333E-03
-1.8740000000E-01,+1.666667E-03
-1.8720000000E-01,+1.875000E-03
-1.8700000000E-01,+1.541667E-03
-1.8680000000E-01,+1.583333E-03
-1.8660000000E-01,+1.458333E-03
-1.8640000000E-01,+1.958333E-03
-1.8620000000E-01,+1.875000E-03
-1.8600000000E-01,+1.500000E-03
-1.8580000000E-01,+1.708333E-03
-1.8560000000E-01,+1.375000E-03
-1.8540000000E-01,+1.750000E-03
-1.8520000000E-01,+2.000000E-03
-1.8500000000E-01,+1.541667E-03
-1.8480000000E-01,+1.291667E-03
-1.8460000000E-01,+1.583333E-03
-1.8440000000E-01,+1.666667E-03
-1.8420000000E-01,+2.125000E-03
-1.8400000000E-01,+2.000000E-03
-1.8380000000E-01,+1.583333E-03
-1.8360000000E-01,+1.416667E-03
-1.8340000000E-01,+1.666667E-03
-1.8320000000E-01,+1.916667E-03
-1.8300000000E-01,+1.541667E-03
-1.8280000000E-01,+1.958333E-03
-1.8260000000E-01,+1.500000E-03
-1.8240000000E-01,+1.375000E-03
-1.8220000000E-01,+1.625000E-03
-1.8200000000E-01,+1.708333E-03
-1.8180000000E-01,+1.666667E-03
-1.8160000000E-01,+1.333333E-03
-1.8140000000E-01,+1.500000E-03
-1.8120000000E-01,+1.500000E-03
-1.8100000000E-01,+1.833333E-03
-1.8080000000E-01,+1.875000E-03
-1.8060000000E-01,+1.708333E-03
-1.8040000000E-01,+1.541667E-03
-1.8020000000E-01,+1.750000E-03
-1.8000000000E-01,+1.625000E-03
-1.7980000000E-01,+1.833333E-03
-1.7960000000E-01,+1.625000E-03
-1.7940000000E-01,+2.291667E-03
-1.7920000000E-01,+1.208333E-03
-1.7900000000E-01,+1.750000E-03
-1.7880000000E-01,+1.541667E-03
-1.7860000000E-01,+1.750000E-03
-1.7840000000E-01,+1.708333E-03
-1.7820000000E-01,+1.750000E-03
-1.7800000000E-01,+1.291667E-03
-1.7780000000E-01,+1.541667E-03
-1.7760000000E-01,+2.125000E-03
-1.7740000000E-01,+1.750000E-03
-1.7720000000E-01,+1.208333E-03
-1.7700000000E-01,+1.166667E-03
-1.7680000000E-01,+1.458333E-03
-1.7660000000E-01,+1.125000E-03
-1.7640000000E-01,+1.416667E-03
-1.7620000000E-01,+1.625000E-03
-1.7600000000E-01,+1.625000E-03
-1.7580000000E-01,+1.500000E-03
-1.7560000000E-01,+1.875000E-03
-1.7540000000E-01,+1.250000E-03
-1.7520000000E-01,+1.666667E-03
-1.7500000000E-01,+1.625000E-03
-1.7480000000E-01,+1.708333E-03
-1.7460000000E-01,+1.250000E-03
-1.7440000000E-01,+1.541667E-03
-1.7420000000E-01,+2.125000E-03
-1.7400000000E-01,+2.041667E-03
-1.7380000000E-01,+1.541667E-03
-1.7360000000E-01,+1.458333E-03
-1.7340000000E-01,+1.791667E-03
-1.7320000000E-01,+2.083333E-03
-1.7300000000E-01,+2.041667E-03
-1.7280000000E-01,+1.458333E-03
-1.7260000000E-01,+1.500000E-03
-1.7240000000E-01,+1.625000E-03
-1.7220000000E-01,+1.583333E-03
-1.7200000000E-01,+1.791667E-03
-1.7180000000E-01,+1.916667E-03
-1.7160000000E-01,+1.250000E-03
-1.7140000000E-01,+1.833333E-03
-1.7120000000E-01,+1.583333E-03
-1.7100000000E-01,+1.500000E-03
-1.7080000000E-01,+1.833333E-03
-1.7060000000E-01,+1.583333E-03
-1.7040000000E-01,+1.375000E-03
-1.7020000000E-01,+1.500000E-03
-1.7000000000E-01,+1.583333E-03
-1.6980000000E-01,+1.625000E-03
-1.6960000000E-01,+1.625000E-03
-1.6940000000E-01,+1.750000E-03
-1.6920000000E-01,+1.500000E-03
-1.6900000000E-01,+1.458333E-03
-1.6880000000E-01,+1.583333E-03
-1.6860000000E-01,+1.500000E-03
-1.6840000000E-01,+2.083333E-03
-1.6820000000E-01,+1.583333E-03
-1.6800000000E-01,+1.500000E-03
-1.6780000000E-01,+1.416667E-03
-1.6760000000E-01,+1.625000E-03
-1.6740000000E-01,+2.083333E-03
-1.6720000000E-01,+1.875000E-03
-1.6700000000E-01,+1.500000E-03
-1.6680000000E-01,+1.666667E-03
-1.6660000000E-01,+1.583333E-03
-1.6640000000E-01,+1.750000E-03
-1.6620000000E-01,+1.916667E-03
-1.6600000000E-01,+2.000000E-03
-1.6580000000E-01,+1.625000E-03
-1.6560000000E-01,+1.500000E-03
-1.6540000000E-01,+2.041667E-03
-1.6520000000E-01,+1.333333E-03
-1.6500000000E-01,+1.750000E-03
-1.6480000000E-01,+1.458333E-03
-1.6460000000E-01,+1.750000E-03
-1.6440000000E-01,+1.916667E-03
-1.6420000000E-01,+1.666667E-03
-1.6400000000E-01,+2.083333E-03
-1.6380000000E-01,+1.958333E-03
-1.6360000000E-01,+1.666667E-03
-1.6340000000E-01,+1.291667E-03
-1.6320000000E-01,+1.958333E-03
-1.6300000000E-01,+1.666667E-03
-1.6280000000E-01,+1.791667E-03
-1.6260000000E-01,+1.791667E-03
-1.6240000000E-01,+1.583333E-03
-1.6220000000E-01,+1.291667E-03
-1.6200000000E-01,+2.208333E-03
-1.6180000000E-01,+1.666667E-03
-1.6160000000E-01,+1.541667E-03
-1.6140000000E-01,+1.666667E-03
-1.6120000000E-01,+1.791667E-03
-1.6100000000E-01,+1.708333E-03
-1.6080000000E-01,+2.000000E-03
-1.6060000000E-01,+1.958333E-03
-1.6040000000E-01,+1.833333E-03
-1.6020000000E-01,+1.791667E-03
-1.6000000000E-01,+1.708333E-03
-1.5980000000E-01,+2.000000E-03
-1.5960000000E-01,+1.666667E-03
-1.5940000000E-01,+1.958333E-03
-1.5920000000E-01,+1.750000E-03
-1.5900000000E-01,+1.833333E-03
-1.5880000000E-01,+1.666667E-03
-1.5860000000E-01,+1.666667E-03
-1.5840000000E-01,+2.291667E-03
-1.5820000000E-01,+2.250000E-03
-1.5800000000E-01,+1.708333E-03
-1.5780000000E-01,+1.708333E-03
-1.5760000000E-01,+1.875000E-03
-1.5740000000E-01,+2.083333E-03
-1.5720000000E-01,+1.750000E-03
-1.5700000000E-01,+1.750000E-03
-1.5680000000E-01,+1.416667E-03
-1.5660000000E-01,+1.458333E-03
-1.5640000000E-01,+2.083333E-03
-1.5620000000E-01,+1.958333E-03
-1.5600000000E-01,+2.083333E-03
-1.5580000000E-01,+1.916667E-03
-1.5560000000E-01,+1.583333E-03
-1.5540000000E-01,+1.666667E-03
-1.5520000000E-01,+1.958333E-03
-1.5500000000E-01,+1.916667E-03
-1.5480000000E-01,+1.916667E-03
-1.5460000000E-01,+1.833333E-03
-1.5440000000E-01,+1.791667E-03
-1.5420000000E-01,+2.041667E-03
-1.5400000000E-01,+1.875000E-03
-1.5380000000E-01,+1.958333E-03
-1.5360000000E-01,+1.750000E-03
-1.5340000000E-01,+1.666667E-03
-1.5320000000E-01,+2.083333E-03
-1.5300000000E-01,+1.916667E-03
-1.5280000000E-01,+1.875000E-03
-1.5260000000E-01,+1.750000E-03
-1.5240000000E-01,+1.833333E-03
-1.5220000000E-01,+1.625000E-03
-1.5200000000E-01,+1.666667E-03
-1.5180000000E-01,+2.041667E-03
-1.5160000000E-01,+1.708333E-03
-1.5140000000E-01,+2.208333E-03
-1.5120000000E-01,+1.708333E-03
-1.5100000000E-01,+1.541667E-03
-1.5080000000E-01,+1.958333E-03
-1.5060000000E-01,+1.958333E-03
-1.5040000000E-01,+1.666667E-03
-1.5020000000E-01,+1.500000E-03
-1.5000000000E-01,+1.875000E-03
-1.4980000000E-01,+1.958333E-03
-1.4960000000E-01,+1.791667E-03
-1.4940000000E-01,+2.083333E-03
-1.4920000000E-01,+1.666667E-03
-1.4900000000E-01,+1.875000E-03
-1.4880000000E-01,+2.125000E-03
-1.4860000000E-01,+1.750000E-03
-1.4840000000E-01,+2.083333E-03
-1.4820000000E-01,+2.083333E-03
-1.4800000000E-01,+1.500000E-03
-1.4780000000E-01,+1.791667E-03
-1.4760000000E-01,+2.000000E-03
-1.4740000000E-01,+1.833333E-03
-1.4720000000E-01,+1.958333E-03
-1.4700000000E-01,+1.750000E-03
-1.4680000000E-01,+1.750000E-03
-1.4660000000E-01,+1.875000E-03
-1.4640000000E-01,+1.916667E-03
-1.4620000000E-01,+2.416667E-03
-1.4600000000E-01,+1.916667E-03
-1.4580000000E-01,+1.625000E-03
-1.4560000000E-01,+1.250000E-03
-1.4540000000E-01,+1.625000E-03
-1.4520000000E-01,+2.166667E-03
-1.4500000000E-01,+2.125000E-03
-1.4480000000E-01,+2.000000E-03
-1.4460000000E-01,+1.916667E-03
-1.4440000000E-01,+1.541667E-03
-1.4420000000E-01,+1.750000E-03
-1.4400000000E-01,+1.958333E-03
-1.4380000000E-01,+2.166667E-03
-1.4360000000E-01,+2.000000E-03
-1.4340000000E-01,+1.500000E-03
-1.4320000000E-01,+1.791667E-03
-1.4300000000E-01,+2.041667E-03
-1.4280000000E-01,+2.041667E-03
-1.4260000000E-01,+2.083333E-03
-1.4240000000E-01,+1.791667E-03
-1.4220000000E-01,+1.833333E-03
-1.4200000000E-01,+2.291667E-03
-1.4180000000E-01,+1.666667E-03
-1.4160000000E-01,+2.000000E-03
-1.4140000000E-01,+1.666667E-03
-1.4120000000E-01,+1.666667E-03
-1.4100000000E-01,+1.708333E-03
-1.4080000000E-01,+2.083333E-03
-1.4060000000E-01,+2.291667E-03
-1.4040000000E-01,+2.000000E-03
-1.4020000000E-01,+1.541667E-03
-1.4000000000E-01,+1.500000E-03
-1.3980000000E-01,+1.458333E-03
-1.3960000000E-01,+2.416667E-03
-1.3940000000E-01,+2.041667E-03
-1.3920000000E-01,+2.166667E-03
-1.3900000000E-01,+1.750000E-03
-1.3880000000E-01,+1.791667E-03
-1.3860000000E-01,+1.833333E-03
-1.3840000000E-01,+1.666667E-03
-1.3820000000E-01,+1.416667E-03
-1.3800000000E-01,+1.708333E-03
-1.3780000000E-01,+1.458333E-03
-1.3760000000E-01,+2.458333E-03
-1.3740000000E-01,+1.791667E-03
-1.3720000000E-01,+2.041667E-03
-1.3700000000E-01,+1.666667E-03
-1.3680000000E-01,+2.166667E-03
-1.3660000000E-01,+1.708333E-03
-1.3640000000E-01,+1.625000E-03
-1.3620000000E-01,+1.750000E-03
-1.3600000000E-01,+2.000000E-03
-1.3580000000E-01,+1.750000E-03
-1.3560000000E-01,+1.500000E-03
-1.3540000000E-01,+1.666667E-03
-1.3520000000E-01,+1.958333E-03
-1.3500000000E-01,+1.958333E-03
-1.3480000000E-01,+1.958333E-03
-1.3460000000E-01,+1.750000E-03
-1.3440000000E-01,+1.875000E-03
-1.3420000000E-01,+1.833333E-03
-1.3400000000E-01,+2.000000E-03
-1.3380000000E-01,+1.791667E-03
-1.3360000000E-01,+1.875000E-03
-1.3340000000E-01,+1.666667E-03
-1.3320000000E-01,+1.875000E-03
-1.3300000000E-01,+1.625000E-03
-1.3280000000E-01,+1.958333E-03
-1.3260000000E-01,+2.083333E-03
-1.3240000000E-01,+1.958333E-03
-1.3220000000E-01,+1.583333E-03
-1.3200000000E-01,+1.958333E-03
-1.3180000000E-01,+2.041667E-03
-1.3160000000E-01,+1.708333E-03
-1.3140000000E-01,+1.791667E-03
-1.3120000000E-01,+1.750000E-03
-1.3100000000E-01,+1.750000E-03
-1.3080000000E-01,+1.750000E-03
-1.3060000000E-01,+2.208333E-03
-1.3040000000E-01,+2.166667E-03
-1.3020000000E-01,+1.666667E-03
-1.3000000000E-01,+1.916667E-03
-1.2980000000E-01,+2.166667E-03
-1.2960000000E-01,+2.208333E-03
-1.2940000000E-01,+2.166667E-03
-1.2920000000E-01,+2.208333E-03
-1.2900000000E-01,+1.916667E-03
-1.2880000000E-01,+1.875000E-03
-1.2860000000E-01,+2.041667E-03
-1.2840000000E-01,+2.166667E-03
-1.2820000000E-01,+2.166667E-03
-1.2800000000E-01,+1.958333E-03
-1.2780000000E-01,+1.791667E-03
-1.2760000000E-01,+1.875000E-03
-1.2740000000E-01,+1.958333E-03
-1.2720000000E-01,+1.791667E-03
-1.2700000000E-01,+2.500000E-03
-1.2680000000E-01,+1.625000E-03
-1.2660000000E-01,+1.958333E-03
-1.2640000000E-01,+1.708333E-03
-1.2620000000E-01,+1.916667E-03
-1.2600000000E-01,+1.625000E-03
-1.2580000000E-01,+2.000000E-03
-1.2560000000E-01,+2.083333E-03
-1.2540000000E-01,+1.750000E-03
-1.2520000000E-01,+1.625000E-03
-1.2500000000E-01,+2.125000E-03
-1.2480000000E-01,+2.166667E-03
-1.2460000000E-01,+1.875000E-03
-1.2440000000E-01,+1.583333E-03
-1.2420000000E-01,+2.083333E-03
-1.2400000000E-01,+2.125000E-03
-1.2380000000E-01,+2.166667E-03
-1.2360000000E-01,+2.125000E-03
-1.2340000000E-01,+2.166667E-03
-1.2320000000E-01,+2.000000E-03
-1.2300000000E-01,+2.083333E-03
-1.2280000000E-01,+2.416667E-03
-1.2260000000E-01,+2.166667E-03
-1.2240000000E-01,+1.666667E-03
-1.2220000000E-01,+1.916667E-03
-1.2200000000E-01,+1.958333E-03
-1.2180000000E-01,+1.875000E-03
-1.2160000000E-01,+1.958333E-03
-1.2140000000E-01,+1.791667E-03
-1.2120000000E-01,+1.791667E-03
-1.2100000000E-01,+2.125000E-03
-1.2080000000E-01,+1.666667E-03
-1.2060000000E-01,+2.208333E-03
-1.2040000000E-01,+2.083333E-03
-1.2020000000E-01,+2.041667E-03
-1.2000000000E-01,+1.750000E-03
-1.1980000000E-01,+2.083333E-03
-1.1960000000E-01,+1.958333E-03
-1.1940000000E-01,+2.208333E-03
-1.1920000000E-01,+1.875000E-03
-1.1900000000E-01,+2.208333E-03
-1.1880000000E-01,+1.791667E-03
-1.1860000000E-01,+1.750000E-03
-1.1840000000E-01,+2.125000E-03
-1.1820000000E-01,+2.083333E-03
-1.1800000000E-01,+1.708333E-03
-1.1780000000E-01,+1.916667E-03
-1.1760000000E-01,+2.000000E-03
-1.1740000000E-01,+1.666667E-03
-1.1720000000E-01,+2.041667E-03
-1.1700000000E-01,+1.958333E-03
