02-09/usr_wf_data_4.csv

Record Length,Analog:100000
Sample Interval,2.000000E-07
Vertical Units,V,
Vertical Scale,+2.000000E-03
Vertical Offset,+0.000000E+00
Horizontal Units,s
Horizontal Scale,+2.000000E-03
Model,SDS814X HD
Serial Number,SDS08A0Q809397
Software Version,3.8.12.1.1.3.8
Source,CH1
Second,Value
-1.0000000000E-02,+1.270833E-03
-9.9998000000E-03,+1.137500E-03
-9.9996000000E-03,+1.083333E-03
-9.9994000000E-03,+1.225000E-03
-9.9992000000E-03,+1.333333E-03
-9.9990000000E-03,+1.329167E-03
-9.9988000000E-03,+1.575000E-03
-9.9986000000E-03,+1.350000E-03
-9.9984000000E-03,+1.662500E-03
-9.9982000000E-03,+1.512500E-03
-9.9980000000E-03,+1.295833E-03
-9.9978000000E-03,+1.329167E-03
-9.9976000000E-03,+1.279167E-03
-9.9974000000E-03,+1.204167E-03
-9.9972000000E-03,+9.083333E-04
-9.9970000000E-03,+1.075000E-03
-9.9968000000E-03,+1.120833E-03
-9.9966000000E-03,+1.004167E-03
-9.9964000000E-03,+1.429167E-03
-9.9962000000E-03,+1.354167E-03
-9.9960000000E-03,+1.500000E-03
-9.9958000000E-03,+1.441667E-03
-9.9956000000E-03,+1.116667E-03
-9.9954000000E-03,+1.404167E-03
-9.9952000000E-03,+1.350000E-03
-9.9950000000E-03,+1.150000E-03
-9.9948000000E-03,+1.266667E-03
-9.9946000000E-03,+9.458333E-04
-9.9944000000E-03,+1.375000E-03
-9.9942000000E-03,+1.162500E-03
-9.9940000000E-03,+1.208333E-03
-9.9938000000E-03,+1.350000E-03
-9.9936000000E-03,+1.295833E-03
-9.9934000000E-03,+1.279167E-03
-9.9932000000E-03,+1.466667E-03
-9.9930000000E-03,+1.437500E-03
-9.9928000000E-03,+1.095833E-03
-9.9926000000E-03,+9.458333E-04
-9.9924000000E-03,+9.791667E-04
-9.9922000000E-03,+1.116667E-03
-9.9920000000E-03,+1.258333E-03
-9.9918000000E-03,+1.333333E-03
-9.9916000000E-03,+9.666667E-04
-9.9914000000E-03,+1.308333E-03
-9.9912000000E-03,+1.129167E-03
-9.9910000000E-03,+1.370833E-03
-9.9908000000E-03,+1.254167E-03
-9.9906000000E-03,+1.145833E-03
-9.9904000000E-03,+1.245833E-03
-9.9902000000E-03,+1.045833E-03
-9.9900000000E-03,+1.045833E-03
-9.9898000000E-03,+1.266667E-03
-9.9896000000E-03,+1.083333E-03
-9.9894000000E-03,+1.204167E-03
-9.9892000000E-03,+1.320833E-03
-9.9890000000E-03,+1.154167E-03
-9.9888000000E-03,+1.495833E-03
-9.9886000000E-03,+8.916667E-04
-9.9884000000E-03,+9.958333E-04
-9.9882000000E-03,+1.183333E-03
-9.9880000000E-03,+1.383333E-03
-9.9878000000E-03,+1.245833E-03
-9.9876000000E-03,+1.220833E-03
-9.9874000000E-03,+1.141667E-03
-9.9872000000E-03,+1.616667E-03
-9.9870000000E-03,+1.295833E-03
-9.9868000000E-03,+1.508333E-03
-9.9866000000E-03,+1.233333E-03
-9.9864000000E-03,+1.362500E-03
-9.9862000000E-03,+1.216667E-03
-9.9860000000E-03,+1.141667E-03
-9.9858000000E-03,+1.304167E-03
-9.9856000000E-03,+9.083333E-04
-9.9854000000E-03,+1.191667E-03
-9.9852000000E-03,+1.141667E-03
-9.9850000000E-03,+1.208333E-03
-9.9848000000E-03,+1.191667E-03
-9.9846000000E-03,+9.083333E-04
-9.9844000000E-03,+1.262500E-03
-9.9842000000E-03,+1.445833E-03
-9.9840000000E-03,+1.329167E-03
-9.9838000000E-03,+1.312500E-03
-9.9836000000E-03,+1.312500E-03
-9.9834000000E-03,+1.270833E-03
-9.9832000000E-03,+1.120833E-03
-9.9830000000E-03,+1.054167E-03
-9.9828000000E-03,+1.000000E-03
-9.9826000000E-03,+1.166667E-03
-9.9824000000E-03,+6.541667E-04
-9.9822000000E-03,+9.750000E-04
-9.9820000000E-03,+1.225000E-03
-9.9818000000E-03,+1.329167E-03
-9.9816000000E-03,+8.750000E-04
-9.9814000000E-03,+1.350000E-03
-9.9812000000E-03,+1.320833E-03
-9.9810000000E-03,+1.325000E-03
-9.9808000000E-03,+1.100000E-03
-9.9806000000E-03,+9.000000E-04
-9.9804000000E-03,+1.108333E-03
-9.9802000000E-03,+1.258333E-03
-9.9800000000E-03,+9.083333E-04
-9.9798000000E-03,+9.708334E-04
-9.9796000000E-03,+9.333334E-04
-9.9794000000E-03,+1.075000E-03
-9.9792000000E-03,+1.212500E-03
-9.9790000000E-03,+1.154167E-03
-9.9788000000E-03,+1.345833E-03
-9.9786000000E-03,+1.158333E-03
-9.9784000000E-03,+1.237500E-03
-9.9782000000E-03,+1.141667E-03
-9.9780000000E-03,+1.220833E-03
-9.9778000000E-03,+8.958334E-04
-9.9776000000E-03,+1.016667E-03
-9.9774000000E-03,+1.145833E-03
-9.9772000000E-03,+9.916667E-04
-9.9770000000E-03,+1.129167E-03
-9.9768000000E-03,+1.050000E-03
-9.9766000000E-03,+7.916667E-04
-9.9764000000E-03,+1.241667E-03
-9.9762000000E-03,+1.108333E-03
-9.9760000000E-03,+1.054167E-03
-9.9758000000E-03,+1.404167E-03
-9.9756000000E-03,+9.000000E-04
-9.9754000000E-03,+1.254167E-03
-9.9752000000E-03,+1.104167E-03
-9.9750000000E-03,+1.141667E-03
-9.9748000000E-03,+1.000000E-03
-9.9746000000E-03,+8.291667E-04
-9.9744000000E-03,+9.416667E-04
-9.9742000000E-03,+7.416666E-04
-9.9740000000E-03,+8.958334E-04
-9.9738000000E-03,+1.158333E-03
-9.9736000000E-03,+1.308333E-03
-9.9734000000E-03,+1.420833E-03
-9.9732000000E-03,+1.195833E-03
-9.9730000000E-03,+1.041667E-03
-9.9728000000E-03,+1.229167E-03
-9.9726000000E-03,+8.583334E-04
-9.9724000000E-03,+1.095833E-03
-9.9722000000E-03,+7.958334E-04
-9.9720000000E-03,+9.416667E-04
-9.9718000000E-03,+1.083333E-03
-9.9716000000E-03,+9.750000E-04
-9.9714000000E-03,+1.187500E-03
-9.9712000000E-03,+1.266667E-03
-9.9710000000E-03,+1.154167E-03
-9.9708000000E-03,+1.445833E-03
-9.9706000000E-03,+9.750000E-04
-9.9704000000E-03,+1.187500E-03
-9.9702000000E-03,+1.054167E-03
-9.9700000000E-03,+7.208334E-04
-9.9698000000E-03,+1.012500E-03
-9.9696000000E-03,+8.041667E-04
-9.9694000000E-03,+1.075000E-03
-9.9692000000E-03,+9.666667E-04
-9.9690000000E-03,+1.025000E-03
-9.9688000000E-03,+9.041667E-04
-9.9686000000E-03,+9.166667E-04
-9.9684000000E-03,+1.091667E-03
-9.9682000000E-03,+1.241667E-03
-9.9680000000E-03,+1.187500E-03
-9.9678000000E-03,+1.116667E-03
-9.9676000000E-03,+9.208333E-04
-9.9674000000E-03,+1.054167E-03
-9.9672000000E-03,+9.541667E-04
-9.9670000000E-03,+7.458333E-04
-9.9668000000E-03,+1.191667E-03
-9.9666000000E-03,+6.875000E-04
-9.9664000000E-03,+1.187500E-03
-9.9662000000E-03,+1.029167E-03
-9.9660000000E-03,+1.054167E-03
-9.9658000000E-03,+1.350000E-03
-9.9656000000E-03,+9.958333E-04
-9.9654000000E-03,+9.833333E-04
-9.9652000000E-03,+9.541667E-04
-9.9650000000E-03,+1.250000E-03
-9.9648000000E-03,+1.083333E-03
-9.9646000000E-03,+9.375000E-04
-9.9644000000E-03,+1.070833E-03
-9.9642000000E-03,+1.041667E-03
-9.9640000000E-03,+7.666667E-04
-9.9638000000E-03,+1.125000E-03
-9.9636000000E-03,+9.833333E-04
-9.9634000000E-03,+1.100000E-03
-9.9632000000E-03,+9.166667E-04
-9.9630000000E-03,+9.541667E-04
-9.9628000000E-03,+9.416667E-04
-9.9626000000E-03,+8.125000E-04
-9.9624000000E-03,+1.116667E-03
-9.9622000000E-03,+8.625000E-04
-9.9620000000E-03,+1.050000E-03
-9.9618000000E-03,+1.087500E-03
-9.9616000000E-03,+8.041667E-04
-9.9614000000E-03,+9.750000E-04
-9.9612000000E-03,+1.275000E-03
-9.9610000000E-03,+1.129167E-03
-9.9608000000E-03,+1.187500E-03
-9.9606000000E-03,+9.000000E-04
-9.9604000000E-03,+1.008333E-03
-9.9602000000E-03,+1.004167E-03
-9.9600000000E-03,+9.291667E-04
-9.9598000000E-03,+8.166667E-04
-9.9596000000E-03,+5.833333E-04
-9.9594000000E-03,+6.791667E-04
-9.9592000000E-03,+6.958334E-04
-9.9590000000E-03,+1.054167E-03
-9.9588000000E-03,+1.125000E-03
-9.9586000000E-03,+9.666667E-04
-9.9584000000E-03,+1.029167E-03
-9.9582000000E-03,+1.133333E-03
-9.9580000000E-03,+1.008333E-03
-9.9578000000E-03,+1.116667E-03
-9.9576000000E-03,+8.583334E-04
-9.9574000000E-03,+1.045833E-03
-9.9572000000E-03,+8.166667E-04
-9.9570000000E-03,+1.045833E-03
-9.9568000000E-03,+8.458333E-04
-9.9566000000E-03,+7.250000E-04
-9.9564000000E-03,+1.116667E-03
-9.9562000000E-03,+9.750000E-04
-9.9560000000E-03,+9.750000E-04
-9.9558000000E-03,+1.095833E-03
-9.9556000000E-03,+1.175000E-03
-9.9554000000E-03,+9.208333E-04
-9.9552000000E-03,+1.141667E-03
-9.9550000000E-03,+9.083333E-04
-9.9548000000E-03,+3.875000E-04
-9.9546000000E-03,+6.125000E-04
-9.9544000000E-03,+8.000000E-04
-9.9542000000E-03,+8.000000E-04
-9.9540000000E-03,+1.179167E-03
-9.9538000000E-03,+1.241667E-03
-9.9536000000E-03,+7.833333E-04
-9.9534000000E-03,+1.066667E-03
-9.9532000000E-03,+1.000000E-03
-9.9530000000E-03,+1.100000E-03
-9.9528000000E-03,+1.041667E-03
-9.9526000000E-03,+7.208334E-04
-9.9524000000E-03,+7.333333E-04
-9.9522000000E-03,+9.916667E-04
-9.9520000000E-03,+5.791667E-04
-9.9518000000E-03,+1.041667E-03
-9.9516000000E-03,+8.625000E-04
-9.9514000000E-03,+9.708334E-04
-9.9512000000E-03,+8.916667E-04
-9.9510000000E-03,+9.291667E-04
-9.9508000000E-03,+1.270833E-03
-9.9506000000E-03,+9.541667E-04
-9.9504000000E-03,+1.037500E-03
-9.9502000000E-03,+5.125000E-04
-9.9500000000E-03,+9.416667E-04
-9.9498000000E-03,+9.083333E-04
-9.9496000000E-03,+7.083333E-04
-9.9494000000E-03,+7.833333E-04
-9.9492000000E-03,+3.958333E-04
-9.9490000000E-03,+8.375000E-04
-9.9488000000E-03,+9.333334E-04
-9.9486000000E-03,+6.333333E-04
-9.9484000000E-03,+1.158333E-03
-9.9482000000E-03,+1.287500E-03
-9.9480000000E-03,+8.875000E-04
-9.9478000000E-03,+1.129167E-03
-9.9476000000E-03,+8.000000E-04
-9.9474000000E-03,+1.075000E-03
-9.9472000000E-03,+8.833333E-04
-9.9470000000E-03,+7.500000E-04
-9.9468000000E-03,+8.458333E-04
-9.9466000000E-03,+5.666667E-04
-9.9464000000E-03,+7.166667E-04
-9.9462000000E-03,+7.916667E-04
-9.9460000000E-03,+1.008333E-03
-9.9458000000E-03,+1.087500E-03
-9.9456000000E-03,+1.004167E-03
-9.9454000000E-03,+8.916667E-04
-9.9452000000E-03,+9.750000E-04
-9.9450000000E-03,+9.500000E-04
-9.9448000000E-03,+1.004167E-03
-9.9446000000E-03,+8.291667E-04
-9.9444000000E-03,+7.708333E-04
-9.9442000000E-03,+8.041667E-04
-9.9440000000E-03,+9.958333E-04
-9.9438000000E-03,+9.166667E-04
-9.9436000000E-03,+5.916667E-04
-9.9434000000E-03,+9.916667E-04
-9.9432000000E-03,+8.708333E-04
-9.9430000000E-03,+9.083333E-04
-9.9428000000E-03,+9.541667E-04
-9.9426000000E-03,+8.458333E-04
-9.9424000000E-03,+7.916667E-04
-9.9422000000E-03,+1.070833E-03
-9.9420000000E-03,+9.916667E-04
-9.9418000000E-03,+1.062500E-03
-9.9416000000E-03,+8.625000E-04
-9.9414000000E-03,+8.041667E-04
-9.9412000000E-03,+7.916667E-04
-9.9410000000E-03,+7.375000E-04
-9.9408000000E-03,+5.916667E-04
-9.9406000000E-03,+6.583334E-04
-9.9404000000E-03,+1.070833E-03
-9.9402000000E-03,+9.000000E-04
-9.9400000000E-03,+7.791667E-04
-9.9398000000E-03,+7.500000E-04
-9.9396000000E-03,+9.333334E-04
-9.9394000000E-03,+8.458333E-04
-9.9392000000E-03,+9.125000E-04
-9.9390000000E-03,+7.000000E-04
-9.9388000000E-03,+7.458333E-04
-9.9386000000E-03,+7.541667E-04
-9.9384000000E-03,+9.041667E-04
-9.9382000000E-03,+9.541667E-04
-9.9380000000E-03,+8.333334E-04
-9.9378000000E-03,+1.058333E-03
-9.9376000000E-03,+7.875000E-04
-9.9374000000E-03,+9.041667E-04
-9.9372000000E-03,+8.791666E-04
-9.9370000000E-03,+1.000000E-03
-9.9368000000E-03,+8.541667E-04
-9.9366000000E-03,+7.250000E-04
-9.9364000000E-03,+8.833333E-04
-9.9362000000E-03,+8.625000E-04
-9.9360000000E-03,+9.041667E-04
-9.9358000000E-03,+8.833333E-04
-9.9356000000E-03,+8.083333E-04
-9.9354000000E-03,+8.375000E-04
-9.9352000000E-03,+9.541667E-04
-9.9350000000E-03,+5.333333E-04
-9.9348000000E-03,+7.958334E-04
-9.9346000000E-03,+7.500000E-04
-9.9344000000E-03,+8.750000E-04
-9.9342000000E-03,+8.708333E-04
-9.9340000000E-03,+9.041667E-04
-9.9338000000E-03,+8.916667E-04
-9.9336000000E-03,+6.333333E-04
-9.9334000000E-03,+8.708333E-04
-9.9332000000E-03,+9.666667E-04
-9.9330000000E-03,+8.291667E-04
-9.9328000000E-03,+9.583333E-04
-9.9326000000E-03,+6.250000E-04
-9.9324000000E-03,+6.250000E-04
-9.9322000000E-03,+7.333333E-04
-9.9320000000E-03,+6.250000E-04
-9.9318000000E-03,+7.458333E-04
-9.9316000000E-03,+7.000000E-04
-9.9314000000E-03,+1.075000E-03
-9.9312000000E-03,+7.125000E-04
-9.9310000000E-03,+8.916667E-04
-9.9308000000E-03,+1.050000E-03
-9.9306000000E-03,+7.916667E-04
-9.9304000000E-03,+7.541667E-04
-9.9302000000E-03,+8.750000E-04
-9.9300000000E-03,+9.625000E-04
-9.9298000000E-03,+9.166667E-04
-9.9296000000E-03,+5.333333E-04
-9.9294000000E-03,+5.916667E-04
-9.9292000000E-03,+8.416667E-04
-9.9290000000E-03,+6.875000E-04
-9.9288000000E-03,+8.166667E-04
-9.9286000000E-03,+6.375000E-04
-9.9284000000E-03,+9.833333E-04
-9.9282000000E-03,+1.004167E-03
-9.9280000000E-03,+1.000000E-03
-9.9278000000E-03,+8.916667E-04
-9.9276000000E-03,+6.125000E-04
-9.9274000000E-03,+7.208334E-04
-9.9272000000E-03,+7.291667E-04
-9.9270000000E-03,+5.458333E-04
-9.9268000000E-03,+7.583334E-04
-9.9266000000E-03,+6.375000E-04
-9.9264000000E-03,+6.958334E-04
-9.9262000000E-03,+9.333334E-04
-9.9260000000E-03,+8.541667E-04
-9.9258000000E-03,+8.541667E-04
-9.9256000000E-03,+9.041667E-04
-9.9254000000E-03,+1.041667E-03
-9.9252000000E-03,+9.666667E-04
-9.9250000000E-03,+7.583334E-04
-9.9248000000E-03,+9.708334E-04
-9.9246000000E-03,+4.875000E-04
-9.9244000000E-03,+1.008333E-03
-9.9242000000E-03,+6.500000E-04
-9.9240000000E-03,+5.083333E-04
-9.9238000000E-03,+6.750000E-04
-9.9236000000E-03,+5.250000E-04
-9.9234000000E-03,+7.666667E-04
-9.9232000000E-03,+8.500000E-04
-9.9230000000E-03,+8.500000E-04
-9.9228000000E-03,+9.583333E-04
-9.9226000000E-03,+7.416666E-04
-9.9224000000E-03,+1.000000E-03
-9.9222000000E-03,+1.137500E-03
-9.9220000000E-03,+7.041667E-04
-9.9218000000E-03,+7.041667E-04
-9.9216000000E-03,+5.666667E-04
-9.9214000000E-03,+7.208334E-04
-9.9212000000E-03,+6.875000E-04
-9.9210000000E-03,+7.666667E-04
-9.9208000000E-03,+6.958334E-04
-9.9206000000E-03,+7.375000E-04
-9.9204000000E-03,+9.291667E-04
-9.9202000000E-03,+7.916667E-04
-9.9200000000E-03,+8.583334E-04
-9.9198000000E-03,+8.625000E-04
-9.9196000000E-03,+6.125000E-04
-9.9194000000E-03,+7.125000E-04
-9.9192000000E-03,+9.583333E-04
-9.9190000000E-03,+3.333333E-04
-9.9188000000E-03,+6.375000E-04
-9.9186000000E-03,+4.041667E-04
-9.9184000000E-03,+9.041667E-04
-9.9182000000E-03,+1.000000E-03
-9.9180000000E-03,+6.916667E-04
-9.9178000000E-03,+7.791667E-04
-9.9176000000E-03,+7.916667E-04
-9.9174000000E-03,+8.625000E-04
-9.9172000000E-03,+6.208334E-04
-9.9170000000E-03,+6.666667E-04
-9.9168000000E-03,+5.333333E-04
-9.9166000000E-03,+5.000000E-04
-9.9164000000E-03,+5.583334E-04
-9.9162000000E-03,+5.875000E-04
-9.9160000000E-03,+8.416667E-04
-9.9158000000E-03,+1.120833E-03
-9.9156000000E-03,+9.208333E-04
-9.9154000000E-03,+9.750000E-04
-9.9152000000E-03,+1.058333E-03
-9.9150000000E-03,+1.033333E-03
-9.9148000000E-03,+7.875000E-04
-9.9146000000E-03,+6.625000E-04
-9.9144000000E-03,+9.666667E-04
-9.9142000000E-03,+5.625000E-04
-9.9140000000E-03,+4.500000E-04
-9.9138000000E-03,+6.416667E-04
-9.9136000000E-03,+6.333333E-04
-9.9134000000E-03,+4.458333E-04
-9.9132000000E-03,+5.375000E-04
-9.9130000000E-03,+1.116667E-03
-9.9128000000E-03,+9.250000E-04
-9.9126000000E-03,+6.958334E-04
-9.9124000000E-03,+7.375000E-04
-9.9122000000E-03,+9.583333E-04
-9.9120000000E-03,+7.000000E-04
-9.9118000000E-03,+8.041667E-04
-9.9116000000E-03,+5.791667E-04
-9.9114000000E-03,+8.125000E-04
-9.9112000000E-03,+6.583334E-04
-9.9110000000E-03,+7.000000E-04
-9.9108000000E-03,+6.583334E-04
-9.9106000000E-03,+7.916667E-04
-9.9104000000E-03,+1.020833E-03
-9.9102000000E-03,+6.333333E-04
-9.9100000000E-03,+5.208334E-04
-9.9098000000E-03,+8.125000E-04
-9.9096000000E-03,+5.708333E-04
-9.9094000000E-03,+5.875000E-04
-9.9092000000E-03,+6.000000E-04
-9.9090000000E-03,+4.916667E-04
-9.9088000000E-03,+9.125000E-04
-9.9086000000E-03,+5.916667E-04
-9.9084000000E-03,+5.166667E-04
-9.9082000000E-03,+7.791667E-04
-9.9080000000E-03,+8.208333E-04
-9.9078000000E-03,+8.875000E-04
-9.9076000000E-03,+4.541667E-04
-9.9074000000E-03,+7.500000E-04
-9.9072000000E-03,+5.250000E-04
-9.9070000000E-03,+7.291667E-04
-9.9068000000E-03,+5.541667E-04
-9.9066000000E-03,+6.708333E-04
-9.9064000000E-03,+7.041667E-04
-9.9062000000E-03,+7.125000E-04
-9.9060000000E-03,+6.125000E-04
-9.9058000000E-03,+7.125000E-04
-9.9056000000E-03,+4.666667E-04
-9.9054000000E-03,+6.625000E-04
-9.9052000000E-03,+7.916667E-04
-9.9050000000E-03,+6.375000E-04
-9.9048000000E-03,+7.250000E-04
-9.9046000000E-03,+5.458333E-04
-9.9044000000E-03,+7.625000E-04
-9.9042000000E-03,+6.958334E-04
-9.9040000000E-03,+5.833333E-04
-9.9038000000E-03,+4.583334E-04
-9.9036000000E-03,+4.041667E-04
-9.9034000000E-03,+8.041667E-04
-9.9032000000E-03,+8.291667E-04
-9.9030000000E-03,+7.166667E-04
-9.9028000000E-03,+9.500000E-04
-9.9026000000E-03,+5.875000E-04
-9.9024000000E-03,+6.791667E-04
-9.9022000000E-03,+6.375000E-04
-9.9020000000E-03,+5.791667E-04
-9.9018000000E-03,+6.208334E-04
-9.9016000000E-03,+9.750000E-04
-9.9014000000E-03,+8.083333E-04
-9.9012000000E-03,+4.708333E-04
-9.9010000000E-03,+6.333333E-04
-9.9008000000E-03,+6.416667E-04
-9.9006000000E-03,+6.000000E-04
-9.9004000000E-03,+8.625000E-04
-9.9002000000E-03,+9.041667E-04
-9.9000000000E-03,+4.750000E-04
-9.8998000000E-03,+7.958334E-04
-9.8996000000E-03,+9.125000E-04
-9.8994000000E-03,+5.833333E-04
-9.8992000000E-03,+7.958334E-04
-9.8990000000E-03,+4.291667E-04
-9.8988000000E-03,+6.625000E-04
-9.8986000000E-03,+6.500000E-04
-9.8984000000E-03,+6.375000E-04
-9.8982000000E-03,+6.125000E-04
-9.8980000000E-03,+7.875000E-04
-9.8978000000E-03,+6.125000E-04
-9.8976000000E-03,+7.083333E-04
-9.8974000000E-03,+7.500000E-04
-9.8972000000E-03,+7.250000E-04
-9.8970000000E-03,+6.125000E-04
-9.8968000000E-03,+5.250000E-04
-9.8966000000E-03,+5.000000E-04
-9.8964000000E-03,+5.583334E-04
-9.8962000000E-03,+3.916667E-04
-9.8960000000E-03,+4.333333E-04
-9.8958000000E-03,+6.708333E-04
-9.8956000000E-03,+2.708333E-04
-9.8954000000E-03,+7.333333E-04
-9.8952000000E-03,+6.708333E-04
-9.8950000000E-03,+8.458333E-04
-9.8948000000E-03,+8.833333E-04
-9.8946000000E-03,+6.416667E-04
-9.8944000000E-03,+7.833333E-04
-9.8942000000E-03,+7.833333E-04
-9.8940000000E-03,+6.666667E-04
-9.8938000000E-03,+3.166667E-04
-9.8936000000E-03,+4.125000E-04
-9.8934000000E-03,+5.083333E-04
-9.8932000000E-03,+4.125000E-04
-9.8930000000E-03,+4.625000E-04
-9.8928000000E-03,+8.083333E-04
-9.8926000000E-03,+6.041666E-04
-9.8924000000E-03,+7.125000E-04
-9.8922000000E-03,+7.375000E-04
-9.8920000000E-03,+7.000000E-04
-9.8918000000E-03,+8.875000E-04
-9.8916000000E-03,+5.000000E-04
-9.8914000000E-03,+6.125000E-04
-9.8912000000E-03,+3.833333E-04
-9.8910000000E-03,+4.500000E-04
-9.8908000000E-03,+5.541667E-04
-9.8906000000E-03,+4.625000E-04
-9.8904000000E-03,+6.416667E-04
-9.8902000000E-03,+8.666667E-04
-9.8900000000E-03,+6.791667E-04
-9.8898000000E-03,+7.250000E-04
-9.8896000000E-03,+5.500000E-04
-9.8894000000E-03,+6.000000E-04
-9.8892000000E-03,+7.250000E-04
-9.8890000000E-03,+6.250000E-04
-9.8888000000E-03,+7.791667E-04
-9.8886000000E-03,+4.500000E-04
-9.8884000000E-03,+6.875000E-04
-9.8882000000E-03,+4.083333E-04
-9.8880000000E-03,+5.833333E-04
-9.8878000000E-03,+5.166667E-04
-9.8876000000E-03,+3.791667E-04
-9.8874000000E-03,+8.916667E-04
-9.8872000000E-03,+7.750000E-04
-9.8870000000E-03,+5.791667E-04
-9.8868000000E-03,+7.791667E-04
-9.8866000000E-03,+5.291667E-04
-9.8864000000E-03,+6.708333E-04
-9.8862000000E-03,+5.875000E-04
-9.8860000000E-03,+4.125000E-04
-9.8858000000E-03,+7.166667E-04
-9.8856000000E-03,+3.125000E-04
-9.8854000000E-03,+3.208334E-04
-9.8852000000E-03,+4.958333E-04
-9.8850000000E-03,+5.958333E-04
-9.8848000000E-03,+6.708333E-04
-9.8846000000E-03,+7.208334E-04
-9.8844000000E-03,+7.708333E-04
-9.8842000000E-03,+5.333333E-04
-9.8840000000E-03,+4.791667E-04
-9.8838000000E-03,+4.541667E-04
-9.8836000000E-03,+5.958333E-04
-9.8834000000E-03,+7.125000E-04
-9.8832000000E-03,+7.083333E-04
-9.8830000000E-03,+4.333333E-04
-9.8828000000E-03,+7.166667E-04
-9.8826000000E-03,+2.708333E-04
-9.8824000000E-03,+6.708333E-04
-9.8822000000E-03,+5.083333E-04
-9.8820000000E-03,+4.625000E-04
-9.8818000000E-03,+9.041667E-04
-9.8816000000E-03,+4.375000E-04
-9.8814000000E-03,+7.083333E-04
-9.8812000000E-03,+6.125000E-04
-9.8810000000E-03,+5.500000E-04
-9.8808000000E-03,+6.375000E-04
-9.8806000000E-03,+6.000000E-04
-9.8804000000E-03,+6.375000E-04
-9.8802000000E-03,+8.250000E-04
-9.8800000000E-03,+4.000000E-04
-9.8798000000E-03,+5.083333E-04
-9.8796000000E-03,+3.708333E-04
-9.8794000000E-03,+6.875000E-04
-9.8792000000E-03,+6.541667E-04
-9.8790000000E-03,+5.416667E-04
-9.8788000000E-03,+5.375000E-04
-9.8786000000E-03,+5.458333E-04
-9.8784000000E-03,+7.791667E-04
-9.8782000000E-03,+4.708333E-04
-9.8780000000E-03,+7.291667E-04
-9.8778000000E-03,+6.791667E-04
-9.8776000000E-03,+6.666667E-04
-9.8774000000E-03,+7.041667E-04
-9.8772000000E-03,+6.583334E-04
-9.8770000000E-03,+5.583334E-04
