16-09/Data4_1mm.csv

Record Length,Analog:100000
Sample Interval,5.000000E-05
Vertical Units,V,
Vertical Scale,+1.000000E-01
Vertical Offset,+0.000000E+00
Horizontal Units,s
Horizontal Scale,+5.000000E-01
Model,SDS814X HD
Serial Number,SDS08A0D809841
Software Version,3.8.12.1.1.3.8
Source,CH1
Second,Value
-2.5200000000E+00,-4.166667E-04
-2.5199500000E+00,-2.083333E-04
-2.5199000000E+00,-2.083333E-04
-2.5198500000E+00,+2.083333E-04
-2.5198000000E+00,+0.000000E+00
-2.5197500000E+00,+2.083333E-04
-2.5197000000E+00,-8.333334E-04
-2.5196500000E+00,-2.083333E-04
-2.5196000000E+00,-4.166667E-04
-2.5195500000E+00,-2.083333E-04
-2.5195000000E+00,+0.000000E+00
-2.5194500000E+00,-6.250000E-04
-2.5194000000E+00,-1.041667E-03
-2.5193500000E+00,-6.250000E-04
-2.5193000000E+00,-6.250000E-04
-2.5192500000E+00,+0.000000E+00
-2.5192000000E+00,+6.250000E-04
-2.5191500000E+00,+4.166667E-04
-2.5191000000E+00,-4.166667E-04
-2.5190500000E+00,+2.083333E-04
-2.5190000000E+00,-4.166667E-04
-2.5189500000E+00,+0.000000E+00
-2.5189000000E+00,+4.166667E-04
-2.5188500000E+00,-2.083333E-04
-2.5188000000E+00,+0.000000E+00
-2.5187500000E+00,-2.083333E-04
-2.5187000000E+00,+0.000000E+00
-2.5186500000E+00,-8.333334E-04
-2.5186000000E+00,+6.250000E-04
-2.5185500000E+00,+0.000000E+00
-2.5185000000E+00,+4.166667E-04
-2.5184500000E+00,-4.166667E-04
-2.5184000000E+00,+2.083333E-04
-2.5183500000E+00,-6.250000E-04
-2.5183000000E+00,-2.083333E-04
-2.5182500000E+00,-6.250000E-04
-2.5182000000E+00,-2.083333E-04
-2.5181500000E+00,+1.041667E-03
-2.5181000000E+00,-6.250000E-04
-2.5180500000E+00,+0.000000E+00
-2.5180000000E+00,+0.000000E+00
-2.5179500000E+00,+0.000000E+00
-2.5179000000E+00,-2.083333E-04
-2.5178500000E+00,-2.083333E-04
-2.5178000000E+00,-4.166667E-04
-2.5177500000E+00,-4.166667E-04
-2.5177000000E+00,+2.083333E-04
-2.5176500000E+00,-6.250000E-04
-2.5176000000E+00,-2.083333E-04
-2.5175500000E+00,+4.166667E-04
-2.5175000000E+00,+0.000000E+00
-2.5174500000E+00,+0.000000E+00
-2.5174000000E+00,+0.000000E+00
-2.5173500000E+00,+4.166667E-04
-2.5173000000E+00,+0.000000E+00
-2.5172500000E+00,-2.083333E-04
-2.5172000000E+00,-2.083333E-04
-2.5171500000E+00,-2.083333E-04
-2.5171000000E+00,+2.083333E-04
-2.5170500000E+00,+4.166667E-04
-2.5170000000E+00,+2.083333E-04
-2.5169500000E+00,+0.000000E+00
-2.5169000000E+00,-8.333334E-04
-2.5168500000E+00,+0.000000E+00
-2.5168000000E+00,-1.458333E-03
-2.5167500000E+00,-8.333334E-04
-2.5167000000E+00,-4.166667E-04
-2.5166500000E+00,-4.166667E-04
-2.5166000000E+00,-2.083333E-04
-2.5165500000E+00,-4.166667E-04
-2.5165000000E+00,-2.083333E-04
-2.5164500000E+00,+6.250000E-04
-2.5164000000E+00,+0.000000E+00
-2.5163500000E+00,-4.166667E-04
-2.5163000000E+00,-6.250000E-04
-2.5162500000E+00,-2.083333E-04
-2.5162000000E+00,-6.250000E-04
-2.5161500000E+00,-8.333334E-04
-2.5161000000E+00,+0.000000E+00
-2.5160500000E+00,-4.166667E-04
-2.5160000000E+00,-6.250000E-04
-2.5159500000E+00,-2.083333E-04
-2.5159000000E+00,-2.083333E-04
-2.5158500000E+00,-1.041667E-03
-2.5158000000E+00,-8.333334E-04
-2.5157500000E+00,-4.166667E-04
-2.5157000000E+00,-4.166667E-04
-2.5156500000E+00,-6.250000E-04
-2.5156000000E+00,-2.083333E-04
-2.5155500000E+00,-2.083333E-04
-2.5155000000E+00,-2.083333E-04
-2.5154500000E+00,-1.041667E-03
-2.5154000000E+00,-8.333334E-04
-2.5153500000E+00,+8.333334E-04
-2.5153000000E+00,+2.083333E-04
-2.5152500000E+00,-4.166667E-04
-2.5152000000E+00,+0.000000E+00
-2.5151500000E+00,+0.000000E+00
-2.5151000000E+00,-4.166667E-04
-2.5150500000E+00,-2.083333E-04
-2.5150000000E+00,-4.166667E-04
-2.5149500000E+00,-2.083333E-04
-2.5149000000E+00,-4.166667E-04
-2.5148500000E+00,+8.333334E-04
-2.5148000000E+00,-2.083333E-04
-2.5147500000E+00,-2.083333E-04
-2.5147000000E+00,-2.083333E-04
-2.5146500000E+00,+4.166667E-04
-2.5146000000E+00,+4.166667E-04
-2.5145500000E+00,+8.333334E-04
-2.5145000000E+00,+2.083333E-04
-2.5144500000E+00,-2.083333E-04
-2.5144000000E+00,+0.000000E+00
-2.5143500000E+00,-6.250000E-04
-2.5143000000E+00,+2.083333E-04
-2.5142500000E+00,-2.083333E-04
-2.5142000000E+00,-4.166667E-04
-2.5141500000E+00,-6.250000E-04
-2.5141000000E+00,+2.083333E-04
-2.5140500000E+00,-8.333334E-04
-2.5140000000E+00,+0.000000E+00
-2.5139500000E+00,-4.166667E-04
-2.5139000000E+00,-2.083333E-04
-2.5138500000E+00,-1.250000E-03
-2.5138000000E+00,+2.083333E-04
-2.5137500000E+00,+0.000000E+00
-2.5137000000E+00,+0.000000E+00
-2.5136500000E+00,-2.083333E-04
-2.5136000000E+00,-2.083333E-04
-2.5135500000E+00,-4.166667E-04
-2.5135000000E+00,+2.083333E-04
-2.5134500000E+00,-2.083333E-04
-2.5134000000E+00,-4.166667E-04
-2.5133500000E+00,+0.000000E+00
-2.5133000000E+00,-4.166667E-04
-2.5132500000E+00,+4.166667E-04
-2.5132000000E+00,-4.166667E-04
-2.5131500000E+00,-4.166667E-04
-2.5131000000E+00,+0.000000E+00
-2.5130500000E+00,-6.250000E-04
-2.5130000000E+00,+2.083333E-04
-2.5129500000E+00,-8.333334E-04
-2.5129000000E+00,-2.083333E-04
-2.5128500000E+00,+2.083333E-04
-2.5128000000E+00,+2.083333E-04
-2.5127500000E+00,+2.083333E-04
-2.5127000000E+00,-2.083333E-04
-2.5126500000E+00,-6.250000E-04
-2.5126000000E+00,+0.000000E+00
-2.5125500000E+00,+2.083333E-04
-2.5125000000E+00,-4.166667E-04
-2.5124500000E+00,-4.166667E-04
-2.5124000000E+00,-2.083333E-04
-2.5123500000E+00,-6.250000E-04
-2.5123000000E+00,+0.000000E+00
-2.5122500000E+00,+2.083333E-04
-2.5122000000E+00,+4.166667E-04
-2.5121500000E+00,-4.166667E-04
-2.5121000000E+00,-2.083333E-04
-2.5120500000E+00,-4.166667E-04
-2.5120000000E+00,+4.166667E-04
-2.5119500000E+00,-4.166667E-04
-2.5119000000E+00,-2.083333E-04
-2.5118500000E+00,+0.000000E+00
-2.5118000000E+00,+2.083333E-04
-2.5117500000E+00,-4.166667E-04
-2.5117000000E+00,-6.250000E-04
-2.5116500000E+00,-8.333334E-04
-2.5116000000E+00,-2.083333E-04
-2.5115500000E+00,-2.083333E-04
-2.5115000000E+00,-8.333334E-04
-2.5114500000E+00,-8.333334E-04
-2.5114000000E+00,-4.166667E-04
-2.5113500000E+00,-2.083333E-04
-2.5113000000E+00,-2.083333E-04
-2.5112500000E+00,-2.083333E-04
-2.5112000000E+00,-6.250000E-04
-2.5111500000E+00,+2.083333E-04
-2.5111000000E+00,-2.083333E-04
-2.5110500000E+00,-4.166667E-04
-2.5110000000E+00,+2.083333E-04
-2.5109500000E+00,+2.083333E-04
-2.5109000000E+00,+4.166667E-04
-2.5108500000E+00,+0.000000E+00
-2.5108000000E+00,+2.083333E-04
-2.5107500000E+00,-4.166667E-04
-2.5107000000E+00,-2.083333E-04
-2.5106500000E+00,+0.000000E+00
-2.5106000000E+00,+0.000000E+00
-2.5105500000E+00,+2.083333E-04
-2.5105000000E+00,-2.083333E-04
-2.5104500000E+00,-6.250000E-04
-2.5104000000E+00,-2.083333E-04
-2.5103500000E+00,-2.083333E-04
-2.5103000000E+00,-6.250000E-04
-2.5102500000E+00,-6.250000E-04
-2.5102000000E+00,+2.083333E-04
-2.5101500000E+00,-4.166667E-04
-2.5101000000E+00,-4.166667E-04
-2.5100500000E+00,+0.000000E+00
-2.5100000000E+00,+2.083333E-04
-2.5099500000E+00,+2.083333E-04
-2.5099000000E+00,+2.083333E-04
-2.5098500000E+00,-1.458333E-03
-2.5098000000E+00,-6.250000E-04
-2.5097500000E+00,-8.333334E-04
-2.5097000000E+00,-2.083333E-04
-2.5096500000E+00,-2.083333E-04
-2.5096000000E+00,-4.166667E-04
-2.5095500000E+00,-2.083333E-04
-2.5095000000E+00,+2.083333E-04
-2.5094500000E+00,-2.083333E-04
-2.5094000000E+00,-4.166667E-04
-2.5093500000E+00,+0.000000E+00
-2.5093000000E+00,-2.083333E-04
-2.5092500000E+00,+0.000000E+00
-2.5092000000E+00,-4.166667E-04
-2.5091500000E+00,+0.000000E+00
-2.5091000000E+00,-4.166667E-04
-2.5090500000E+00,+0.000000E+00
-2.5090000000E+00,-8.333334E-04
-2.5089500000E+00,-8.333334E-04
-2.5089000000E+00,-2.083333E-04
-2.5088500000E+00,+6.250000E-04
-2.5088000000E+00,-4.166667E-04
-2.5087500000E+00,-6.250000E-04
-2.5087000000E+00,+0.000000E+00
-2.5086500000E+00,+2.083333E-04
-2.5086000000E+00,-1.041667E-03
-2.5085500000E+00,-2.083333E-04
-2.5085000000E+00,-2.083333E-04
-2.5084500000E+00,+0.000000E+00
-2.5084000000E+00,-6.250000E-04
-2.5083500000E+00,+0.000000E+00
-2.5083000000E+00,-2.083333E-04
-2.5082500000E+00,+0.000000E+00
-2.5082000000E+00,-4.166667E-04
-2.5081500000E+00,+2.083333E-04
-2.5081000000E+00,-1.041667E-03
-2.5080500000E+00,-6.250000E-04
-2.5080000000E+00,+0.000000E+00
-2.5079500000E+00,+2.083333E-04
-2.5079000000E+00,-4.166667E-04
-2.5078500000E+00,-4.166667E-04
-2.5078000000E+00,-4.166667E-04
-2.5077500000E+00,+0.000000E+00
-2.5077000000E+00,-2.083333E-04
-2.5076500000E+00,-4.166667E-04
-2.5076000000E+00,+0.000000E+00
-2.5075500000E+00,+2.083333E-04
-2.5075000000E+00,+2.083333E-04
-2.5074500000E+00,+2.083333E-04
-2.5074000000E+00,+0.000000E+00
-2.5073500000E+00,-6.250000E-04
-2.5073000000E+00,-2.083333E-04
-2.5072500000E+00,+2.083333E-04
-2.5072000000E+00,-4.166667E-04
-2.5071500000E+00,-8.333334E-04
-2.5071000000E+00,+2.083333E-04
-2.5070500000E+00,-2.500000E-03
-2.5070000000E+00,-6.250000E-04
-2.5069500000E+00,+0.000000E+00
-2.5069000000E+00,-2.083333E-04
-2.5068500000E+00,-2.083333E-04
-2.5068000000E+00,-2.083333E-04
-2.5067500000E+00,+0.000000E+00
-2.5067000000E+00,-4.166667E-04
-2.5066500000E+00,-2.083333E-04
-2.5066000000E+00,-8.333334E-04
-2.5065500000E+00,+2.083333E-04
-2.5065000000E+00,-2.083333E-04
-2.5064500000E+00,+4.166667E-04
-2.5064000000E+00,-2.083333E-04
-2.5063500000E+00,-2.083333E-04
-2.5063000000E+00,+2.083333E-04
-2.5062500000E+00,-6.250000E-04
-2.5062000000E+00,-4.166667E-04
-2.5061500000E+00,+0.000000E+00
-2.5061000000E+00,+4.166667E-04
-2.5060500000E+00,-6.250000E-04
-2.5060000000E+00,-2.083333E-04
-2.5059500000E+00,+2.083333E-04
-2.5059000000E+00,+2.083333E-04
-2.5058500000E+00,-6.250000E-04
-2.5058000000E+00,-6.250000E-04
-2.5057500000E+00,+4.166667E-04
-2.5057000000E+00,-2.083333E-04
-2.5056500000E+00,+2.083333E-04
-2.5056000000E+00,-4.166667E-04
-2.5055500000E+00,+0.000000E+00
-2.5055000000E+00,+0.000000E+00
-2.5054500000E+00,+2.083333E-04
-2.5054000000E+00,-6.250000E-04
-2.5053500000E+00,-4.166667E-04
-2.5053000000E+00,-6.250000E-04
-2.5052500000E+00,-2.083333E-04
-2.5052000000E+00,-2.083333E-04
-2.5051500000E+00,-1.250000E-03
-2.5051000000E+00,-6.250000E-04
-2.5050500000E+00,-6.250000E-04
-2.5050000000E+00,-2.083333E-04
-2.5049500000E+00,-1.041667E-03
-2.5049000000E+00,+2.083333E-04
-2.5048500000E+00,+0.000000E+00
-2.5048000000E+00,-6.250000E-04
-2.5047500000E+00,-4.166667E-04
-2.5047000000E+00,-6.250000E-04
-2.5046500000E+00,-4.166667E-04
-2.5046000000E+00,-8.333334E-04
-2.5045500000E+00,-4.166667E-04
-2.5045000000E+00,-2.083333E-04
-2.5044500000E+00,-2.083333E-04
-2.5044000000E+00,-4.166667E-04
-2.5043500000E+00,-2.083333E-04
-2.5043000000E+00,-2.083333E-04
-2.5042500000E+00,+8.333334E-04
-2.5042000000E+00,+2.083333E-04
-2.5041500000E+00,+0.000000E+00
-2.5041000000E+00,+2.083333E-04
-2.5040500000E+00,+2.083333E-04
-2.5040000000E+00,+2.083333E-04
-2.5039500000E+00,+0.000000E+00
-2.5039000000E+00,+6.250000E-04
-2.5038500000E+00,-4.166667E-04
-2.5038000000E+00,+4.166667E-04
-2.5037500000E+00,+6.250000E-04
-2.5037000000E+00,-4.166667E-04
-2.5036500000E+00,-2.083333E-04
-2.5036000000E+00,+2.083333E-04
-2.5035500000E+00,-4.166667E-04
-2.5035000000E+00,+0.000000E+00
-2.5034500000E+00,+2.083333E-04
-2.5034000000E+00,-2.083333E-04
-2.5033500000E+00,-6.250000E-04
-2.5033000000E+00,-8.333334E-04
-2.5032500000E+00,+6.250000E-04
-2.5032000000E+00,-6.250000E-04
-2.5031500000E+00,+2.083333E-04
-2.5031000000E+00,+0.000000E+00
-2.5030500000E+00,-2.083333E-04
-2.5030000000E+00,+2.083333E-04
-2.5029500000E+00,-2.083333E-04
-2.5029000000E+00,-6.250000E-04
-2.5028500000E+00,-4.166667E-04
-2.5028000000E+00,+2.083333E-04
-2.5027500000E+00,-2.083333E-04
-2.5027000000E+00,+0.000000E+00
-2.5026500000E+00,-2.083333E-04
-2.5026000000E+00,+6.250000E-04
-2.5025500000E+00,+0.000000E+00
-2.5025000000E+00,+6.250000E-04
-2.5024500000E+00,+0.000000E+00
-2.5024000000E+00,+4.166667E-04
-2.5023500000E+00,+4.166667E-04
-2.5023000000E+00,+2.083333E-04
-2.5022500000E+00,-2.083333E-04
-2.5022000000E+00,+4.166667E-04
-2.5021500000E+00,+2.083333E-04
-2.5021000000E+00,-2.083333E-04
-2.5020500000E+00,+0.000000E+00
-2.5020000000E+00,-4.166667E-04
-2.5019500000E+00,-2.083333E-04
-2.5019000000E+00,-4.166667E-04
-2.5018500000E+00,-2.083333E-04
-2.5018000000E+00,+2.083333E-04
-2.5017500000E+00,-2.083333E-04
-2.5017000000E+00,+0.000000E+00
-2.5016500000E+00,+0.000000E+00
-2.5016000000E+00,+4.166667E-04
-2.5015500000E+00,-2.083333E-04
-2.5015000000E+00,-2.083333E-04
-2.5014500000E+00,+4.166667E-04
-2.5014000000E+00,-6.250000E-04
-2.5013500000E+00,+0.000000E+00
-2.5013000000E+00,-2.083333E-04
-2.5012500000E+00,-4.166667E-04
-2.5012000000E+00,-8.333334E-04
-2.5011500000E+00,+4.166667E-04
-2.5011000000E+00,+0.000000E+00
-2.5010500000E+00,+2.083333E-04
-2.5010000000E+00,-2.083333E-04
-2.5009500000E+00,-2.083333E-04
-2.5009000000E+00,+4.166667E-04
-2.5008500000E+00,+0.000000E+00
-2.5008000000E+00,+2.083333E-04
-2.5007500000E+00,+4.166667E-04
-2.5007000000E+00,-4.166667E-04
-2.5006500000E+00,-2.083333E-04
-2.5006000000E+00,-8.333334E-04
-2.5005500000E+00,-4.166667E-04
-2.5005000000E+00,-2.083333E-04
-2.5004500000E+00,-2.083333E-04
-2.5004000000E+00,+0.000000E+00
-2.5003500000E+00,+0.000000E+00
-2.5003000000E+00,-6.250000E-04
-2.5002500000E+00,-2.083333E-04
-2.5002000000E+00,+0.000000E+00
-2.5001500000E+00,+2.083333E-04
-2.5001000000E+00,+2.083333E-04
-2.5000500000E+00,+2.083333E-04
-2.5000000000E+00,+4.166667E-04
-2.4999500000E+00,+0.000000E+00
-2.4999000000E+00,-2.083333E-04
-2.4998500000E+00,-2.083333E-04
-2.4998000000E+00,-6.250000E-04
-2.4997500000E+00,+0.000000E+00
-2.4997000000E+00,+0.000000E+00
-2.4996500000E+00,-2.083333E-04
-2.4996000000E+00,+4.166667E-04
-2.4995500000E+00,+2.083333E-04
-2.4995000000E+00,-2.083333E-04
-2.4994500000E+00,-4.166667E-04
-2.4994000000E+00,+4.166667E-04
-2.4993500000E+00,-6.250000E-04
-2.4993000000E+00,-6.250000E-04
-2.4992500000E+00,+4.166667E-04
-2.4992000000E+00,-2.083333E-04
-2.4991500000E+00,-2.083333E-04
-2.4991000000E+00,-4.166667E-04
-2.4990500000E+00,-6.250000E-04
-2.4990000000E+00,-2.083333E-04
-2.4989500000E+00,+0.000000E+00
-2.4989000000E+00,+0.000000E+00
-2.4988500000E+00,+0.000000E+00
-2.4988000000E+00,+2.083333E-04
-2.4987500000E+00,-2.083333E-04
-2.4987000000E+00,-2.083333E-04
-2.4986500000E+00,-2.083333E-04
-2.4986000000E+00,-2.083333E-04
-2.4985500000E+00,+4.166667E-04
-2.4985000000E+00,-4.166667E-04
-2.4984500000E+00,-4.166667E-04
-2.4984000000E+00,-6.250000E-04
-2.4983500000E+00,-6.250000E-04
-2.4983000000E+00,-6.250000E-04
-2.4982500000E+00,-2.083333E-04
-2.4982000000E+00,-6.250000E-04
-2.4981500000E+00,+0.000000E+00
-2.4981000000E+00,+4.166667E-04
-2.4980500000E+00,-4.166667E-04
-2.4980000000E+00,-2.083333E-04
-2.4979500000E+00,-2.083333E-04
-2.4979000000E+00,+0.000000E+00
-2.4978500000E+00,+0.000000E+00
-2.4978000000E+00,+0.000000E+00
-2.4977500000E+00,+0.000000E+00
-2.4977000000E+00,-2.083333E-04
-2.4976500000E+00,-2.083333E-04
-2.4976000000E+00,+2.083333E-04
-2.4975500000E+00,-6.250000E-04
-2.4975000000E+00,+0.000000E+00
-2.4974500000E+00,+2.083333E-04
-2.4974000000E+00,-1.041667E-03
-2.4973500000E+00,+0.000000E+00
-2.4973000000E+00,-6.250000E-04
-2.4972500000E+00,+2.083333E-04
-2.4972000000E+00,+0.000000E+00
-2.4971500000E+00,-2.083333E-04
-2.4971000000E+00,+4.166667E-04
-2.4970500000E+00,-1.041667E-03
-2.4970000000E+00,+2.083333E-04
-2.4969500000E+00,-2.083333E-04
-2.4969000000E+00,+4.166667E-04
-2.4968500000E+00,+0.000000E+00
-2.4968000000E+00,+6.250000E-04
-2.4967500000E+00,+8.333334E-04
-2.4967000000E+00,+2.083333E-04
-2.4966500000E+00,-6.250000E-04
-2.4966000000E+00,+0.000000E+00
-2.4965500000E+00,+0.000000E+00
-2.4965000000E+00,-6.250000E-04
-2.4964500000E+00,-2.083333E-04
-2.4964000000E+00,-4.166667E-04
-2.4963500000E+00,-4.166667E-04
-2.4963000000E+00,+4.166667E-04
-2.4962500000E+00,-4.166667E-04
-2.4962000000E+00,+0.000000E+00
-2.4961500000E+00,+0.000000E+00
-2.4961000000E+00,-2.083333E-04
-2.4960500000E+00,+0.000000E+00
-2.4960000000E+00,-2.083333E-04
-2.4959500000E+00,+0.000000E+00
-2.4959000000E+00,+4.166667E-04
-2.4958500000E+00,+2.083333E-04
-2.4958000000E+00,-6.250000E-04
-2.4957500000E+00,+2.083333E-04
-2.4957000000E+00,+2.083333E-04
-2.4956500000E+00,-2.083333E-04
-2.4956000000E+00,-4.166667E-04
-2.4955500000E+00,+4.166667E-04
-2.4955000000E+00,-2.083333E-04
-2.4954500000E+00,-2.083333E-04
-2.4954000000E+00,-4.166667E-04
-2.4953500000E+00,-2.083333E-04
-2.4953000000E+00,-8.333334E-04
-2.4952500000E+00,+4.166667E-04
-2.4952000000E+00,-4.166667E-04
-2.4951500000E+00,+6.250000E-04
-2.4951000000E+00,+2.083333E-04
-2.4950500000E+00,+2.083333E-04
-2.4950000000E+00,-4.166667E-04
-2.4949500000E+00,+4.166667E-04
-2.4949000000E+00,+2.083333E-04
-2.4948500000E+00,+0.000000E+00
-2.4948000000E+00,+0.000000E+00
-2.4947500000E+00,-1.250000E-03
-2.4947000000E+00,+4.166667E-04
-2.4946500000E+00,-4.166667E-04
-2.4946000000E+00,+6.250000E-04
-2.4945500000E+00,+2.083333E-04
-2.4945000000E+00,-2.083333E-04
-2.4944500000E+00,+2.083333E-04
-2.4944000000E+00,-4.166667E-04
-2.4943500000E+00,+2.083333E-04
-2.4943000000E+00,-8.333334E-04
-2.4942500000E+00,-2.083333E-04
-2.4942000000E+00,-4.166667E-04
-2.4941500000E+00,+4.166667E-04
-2.4941000000E+00,+0.000000E+00
-2.4940500000E+00,-2.083333E-04
-2.4940000000E+00,+0.000000E+00
-2.4939500000E+00,+0.000000E+00
-2.4939000000E+00,-6.250000E-04
-2.4938500000E+00,+4.166667E-04
-2.4938000000E+00,-8.333334E-04
-2.4937500000E+00,-4.166667E-04
-2.4937000000E+00,-1.666667E-03
-2.4936500000E+00,-4.166667E-04
-2.4936000000E+00,-4.166667E-04
-2.4935500000E+00,-4.166667E-04
-2.4935000000E+00,-4.166667E-04
-2.4934500000E+00,-2.083333E-04
-2.4934000000E+00,+2.083333E-04
-2.4933500000E+00,-4.166667E-04
-2.4933000000E+00,-6.250000E-04
-2.4932500000E+00,-4.166667E-04
-2.4932000000E+00,+2.083333E-04
-2.4931500000E+00,-2.083333E-04
-2.4931000000E+00,+6.250000E-04
-2.4930500000E+00,-4.166667E-04
-2.4930000000E+00,-4.166667E-04
-2.4929500000E+00,+2.083333E-04
-2.4929000000E+00,+4.166667E-04
-2.4928500000E+00,-2.083333E-04
-2.4928000000E+00,-6.250000E-04
-2.4927500000E+00,-2.083333E-04
-2.4927000000E+00,+0.000000E+00
-2.4926500000E+00,-2.083333E-04
-2.4926000000E+00,-4.166667E-04
-2.4925500000E+00,-6.250000E-04
-2.4925000000E+00,-2.083333E-04
-2.4924500000E+00,-4.166667E-04
-2.4924000000E+00,-6.250000E-04
-2.4923500000E+00,+0.000000E+00
-2.4923000000E+00,-2.083333E-04
-2.4922500000E+00,+0.000000E+00
-2.4922000000E+00,+2.083333E-04
-2.4921500000E+00,+2.083333E-04
-2.4921000000E+00,-2.083333E-04
-2.4920500000E+00,-8.333334E-04
-2.4920000000E+00,+0.000000E+00
-2.4919500000E+00,-4.166667E-04
-2.4919000000E+00,-4.166667E-04
-2.4918500000E+00,-6.250000E-04
-2.4918000000E+00,+0.000000E+00
-2.4917500000E+00,+2.083333E-04
-2.4917000000E+00,+6.250000E-04
-2.4916500000E+00,+0.000000E+00
-2.4916000000E+00,-2.083333E-04
-2.4915500000E+00,-2.083333E-04
-2.4915000000E+00,+2.083333E-04
-2.4914500000E+00,-8.333334E-04
-2.4914000000E+00,+1.041667E-03
-2.4913500000E+00,+0.000000E+00
-2.4913000000E+00,+2.083333E-04
-2.4912500000E+00,+2.083333E-04
-2.4912000000E+00,+2.083333E-04
-2.4911500000E+00,+2.083333E-04
-2.4911000000E+00,-2.083333E-04
-2.4910500000E+00,+4.166667E-04
-2.4910000000E+00,-2.083333E-04
-2.4909500000E+00,+2.083333E-04
-2.4909000000E+00,-2.083333E-04
-2.4908500000E+00,+0.000000E+00
-2.4908000000E+00,+6.250000E-04
-2.4907500000E+00,+4.166667E-04
-2.4907000000E+00,+0.000000E+00
-2.4906500000E+00,-2.083333E-04
-2.4906000000E+00,-6.250000E-04
-2.4905500000E+00,-4.166667E-04
-2.4905000000E+00,-2.083333E-04
-2.4904500000E+00,+0.000000E+00
-2.4904000000E+00,+2.083333E-04
-2.4903500000E+00,-2.083333E-04
-2.4903000000E+00,-2.083333E-04
-2.4902500000E+00,+0.000000E+00
-2.4902000000E+00,-4.166667E-04
-2.4901500000E+00,+2.083333E-04
-2.4901000000E+00,-2.083333E-04
-2.4900500000E+00,+0.000000E+00
-2.4900000000E+00,+0.000000E+00
-2.4899500000E+00,+0.000000E+00
-2.4899000000E+00,+1.041667E-03
-2.4898500000E+00,+0.000000E+00
-2.4898000000E+00,+0.000000E+00
-2.4897500000E+00,+0.000000E+00
-2.4897000000E+00,-6.250000E-04
-2.4896500000E+00,+2.083333E-04
-2.4896000000E+00,-2.083333E-04
-2.4895500000E+00,-4.166667E-04
-2.4895000000E+00,+2.083333E-04
-2.4894500000E+00,+2.083333E-04
-2.4894000000E+00,-6.250000E-04
-2.4893500000E+00,+4.166667E-04
-2.4893000000E+00,+0.000000E+00
-2.4892500000E+00,-2.083333E-04
