16-09/Data3_06mm.csv

Record Length,Analog:100000
Sample Interval,5.000000E-05
Vertical Units,V,
Vertical Scale,+2.000000E-02
Vertical Offset,+0.000000E+00
Horizontal Units,s
Horizontal Scale,+5.000000E-01
Model,SDS814X HD
Serial Number,SDS08A0D809841
Software Version,3.8.12.1.1.3.8
Source,CH1
Second,Value
-2.5000000000E+00,-2.500000E-03
-2.4999500000E+00,-2.541667E-03
-2.4999000000E+00,-1.875000E-03
-2.4998500000E+00,-2.083333E-03
-2.4998000000E+00,-2.000000E-03
-2.4997500000E+00,-1.041667E-03
-2.4997000000E+00,-1.791667E-03
-2.4996500000E+00,-7.500000E-04
-2.4996000000E+00,-1.166667E-03
-2.4995500000E+00,-7.916667E-04
-2.4995000000E+00,-7.916667E-04
-2.4994500000E+00,-9.166666E-04
-2.4994000000E+00,-3.750000E-04
-2.4993500000E+00,-5.000000E-04
-2.4993000000E+00,-2.916667E-04
-2.4992500000E+00,+1.250000E-04
-2.4992000000E+00,+5.416666E-04
-2.4991500000E+00,+7.083333E-04
-2.4991000000E+00,+8.333334E-04
-2.4990500000E+00,+1.708333E-03
-2.4990000000E+00,+1.875000E-03
-2.4989500000E+00,+1.708333E-03
-2.4989000000E+00,+2.250000E-03
-2.4988500000E+00,+2.958333E-03
-2.4988000000E+00,+1.916667E-03
-2.4987500000E+00,+2.083333E-03
-2.4987000000E+00,+2.875000E-03
-2.4986500000E+00,+3.416667E-03
-2.4986000000E+00,+2.583333E-03
-2.4985500000E+00,+2.291667E-03
-2.4985000000E+00,+2.291667E-03
-2.4984500000E+00,+2.541667E-03
-2.4984000000E+00,+2.875000E-03
-2.4983500000E+00,+3.083333E-03
-2.4983000000E+00,+1.916667E-03
-2.4982500000E+00,+2.250000E-03
-2.4982000000E+00,+2.083333E-03
-2.4981500000E+00,+2.000000E-03
-2.4981000000E+00,+1.541667E-03
-2.4980500000E+00,+1.625000E-03
-2.4980000000E+00,+5.000000E-04
-2.4979500000E+00,+4.166667E-05
-2.4979000000E+00,+9.166666E-04
-2.4978500000E+00,-2.916667E-04
-2.4978000000E+00,-3.750000E-04
-2.4977500000E+00,-1.041667E-03
-2.4977000000E+00,-5.000000E-04
-2.4976500000E+00,-8.750000E-04
-2.4976000000E+00,-1.041667E-03
-2.4975500000E+00,-1.916667E-03
-2.4975000000E+00,-1.750000E-03
-2.4974500000E+00,-2.083333E-03
-2.4974000000E+00,-2.250000E-03
-2.4973500000E+00,-2.375000E-03
-2.4973000000E+00,-2.708333E-03
-2.4972500000E+00,-2.583333E-03
-2.4972000000E+00,-1.625000E-03
-2.4971500000E+00,-6.250000E-04
-2.4971000000E+00,+4.583333E-04
-2.4970500000E+00,+1.541667E-03
-2.4970000000E+00,+7.083333E-04
-2.4969500000E+00,+2.083333E-03
-2.4969000000E+00,+4.916667E-03
-2.4968500000E+00,+3.291667E-03
-2.4968000000E+00,+5.583333E-03
-2.4967500000E+00,+5.500000E-03
-2.4967000000E+00,+5.583333E-03
-2.4966500000E+00,+3.958333E-03
-2.4966000000E+00,+4.166666E-03
-2.4965500000E+00,+3.291667E-03
-2.4965000000E+00,+3.625000E-03
-2.4964500000E+00,+2.958333E-03
-2.4964000000E+00,+2.333333E-03
-2.4963500000E+00,+2.250000E-03
-2.4963000000E+00,+1.958333E-03
-2.4962500000E+00,+9.166666E-04
-2.4962000000E+00,+2.333333E-03
-2.4961500000E+00,+1.833333E-03
-2.4961000000E+00,+1.208333E-03
-2.4960500000E+00,+1.833333E-03
-2.4960000000E+00,+1.083333E-03
-2.4959500000E+00,+2.833333E-03
-2.4959000000E+00,+2.333333E-03
-2.4958500000E+00,+2.708333E-03
-2.4958000000E+00,+1.291667E-03
-2.4957500000E+00,+3.500000E-03
-2.4957000000E+00,+2.708333E-03
-2.4956500000E+00,+2.625000E-03
-2.4956000000E+00,+2.583333E-03
-2.4955500000E+00,+2.083333E-03
-2.4955000000E+00,+1.083333E-03
-2.4954500000E+00,+2.375000E-03
-2.4954000000E+00,+2.250000E-03
-2.4953500000E+00,+2.500000E-03
-2.4953000000E+00,+2.666667E-03
-2.4952500000E+00,+1.250000E-03
-2.4952000000E+00,+1.583333E-03
-2.4951500000E+00,+2.000000E-03
-2.4951000000E+00,+1.666667E-04
-2.4950500000E+00,-1.375000E-03
-2.4950000000E+00,+3.333333E-04
-2.4949500000E+00,-7.083333E-04
-2.4949000000E+00,-5.416666E-04
-2.4948500000E+00,-9.166666E-04
-2.4948000000E+00,-5.416666E-04
-2.4947500000E+00,-3.291667E-03
-2.4947000000E+00,-1.291667E-03
-2.4946500000E+00,-3.750000E-04
-2.4946000000E+00,-7.083333E-04
-2.4945500000E+00,-9.999999E-04
-2.4945000000E+00,-2.166667E-03
-2.4944500000E+00,-3.750000E-04
-2.4944000000E+00,-1.583333E-03
-2.4943500000E+00,-7.500000E-04
-2.4943000000E+00,-5.000000E-04
-2.4942500000E+00,-2.708333E-03
-2.4942000000E+00,-1.208333E-03
-2.4941500000E+00,-1.708333E-03
-2.4941000000E+00,-1.458333E-03
-2.4940500000E+00,-4.166667E-05
-2.4940000000E+00,-7.083333E-04
-2.4939500000E+00,+4.166667E-05
-2.4939000000E+00,-1.666667E-04
-2.4938500000E+00,+3.750000E-04
-2.4938000000E+00,-1.250000E-04
-2.4937500000E+00,-5.416666E-04
-2.4937000000E+00,+9.166666E-04
-2.4936500000E+00,-4.583333E-04
-2.4936000000E+00,-4.166667E-05
-2.4935500000E+00,-2.500000E-04
-2.4935000000E+00,-1.541667E-03
-2.4934500000E+00,-8.333333E-05
-2.4934000000E+00,-9.583333E-04
-2.4933500000E+00,+5.416666E-04
-2.4933000000E+00,-1.291667E-03
-2.4932500000E+00,+8.750000E-04
-2.4932000000E+00,-3.333333E-04
-2.4931500000E+00,+1.791667E-03
-2.4931000000E+00,-9.999999E-04
-2.4930500000E+00,-1.791667E-03
-2.4930000000E+00,-1.666667E-03
-2.4929500000E+00,+3.750000E-04
-2.4929000000E+00,-1.708333E-03
-2.4928500000E+00,-1.625000E-03
-2.4928000000E+00,-2.208333E-03
-2.4927500000E+00,-4.583333E-03
-2.4927000000E+00,-5.875000E-03
-2.4926500000E+00,-6.416667E-03
-2.4926000000E+00,-6.625000E-03
-2.4925500000E+00,-7.333333E-03
-2.4925000000E+00,-4.625000E-03
-2.4924500000E+00,-5.625000E-03
-2.4924000000E+00,-4.375000E-03
-2.4923500000E+00,-4.458333E-03
-2.4923000000E+00,-4.958333E-03
-2.4922500000E+00,-2.541667E-03
-2.4922000000E+00,-2.125000E-03
-2.4921500000E+00,-1.541667E-03
-2.4921000000E+00,-3.416667E-03
-2.4920500000E+00,-4.000000E-03
-2.4920000000E+00,-3.291667E-03
-2.4919500000E+00,-3.000000E-03
-2.4919000000E+00,-3.333333E-03
-2.4918500000E+00,-4.166666E-03
-2.4918000000E+00,-3.750000E-03
-2.4917500000E+00,-5.458333E-03
-2.4917000000E+00,-5.916667E-03
-2.4916500000E+00,-4.833333E-03
-2.4916000000E+00,-4.541667E-03
-2.4915500000E+00,-6.166667E-03
-2.4915000000E+00,-4.416666E-03
-2.4914500000E+00,-3.458333E-03
-2.4914000000E+00,-2.958333E-03
-2.4913500000E+00,-3.916667E-03
-2.4913000000E+00,-5.750000E-03
-2.4912500000E+00,-3.416667E-03
-2.4912000000E+00,-3.791667E-03
-2.4911500000E+00,-3.791667E-03
-2.4911000000E+00,-4.208333E-03
-2.4910500000E+00,-3.458333E-03
-2.4910000000E+00,-3.750000E-03
-2.4909500000E+00,-4.000000E-03
-2.4909000000E+00,-3.291667E-03
-2.4908500000E+00,-3.916667E-03
-2.4908000000E+00,-2.833333E-03
-2.4907500000E+00,-3.875000E-03
-2.4907000000E+00,-4.125000E-03
-2.4906500000E+00,-3.125000E-03
-2.4906000000E+00,-3.708333E-03
-2.4905500000E+00,-2.500000E-03
-2.4905000000E+00,-3.625000E-03
-2.4904500000E+00,-3.125000E-03
-2.4904000000E+00,-3.916667E-03
-2.4903500000E+00,-3.625000E-03
-2.4903000000E+00,-3.583333E-03
-2.4902500000E+00,-3.833333E-03
-2.4902000000E+00,-2.625000E-03
-2.4901500000E+00,-4.708333E-03
-2.4901000000E+00,-3.291667E-03
-2.4900500000E+00,-3.208333E-03
-2.4900000000E+00,-3.583333E-03
-2.4899500000E+00,-1.833333E-03
-2.4899000000E+00,-3.041667E-03
-2.4898500000E+00,-1.666667E-03
-2.4898000000E+00,-2.125000E-03
-2.4897500000E+00,-1.666667E-03
-2.4897000000E+00,-2.458333E-03
-2.4896500000E+00,-2.375000E-03
-2.4896000000E+00,-2.750000E-03
-2.4895500000E+00,-2.875000E-03
-2.4895000000E+00,-3.083333E-03
-2.4894500000E+00,-3.833333E-03
-2.4894000000E+00,-4.583333E-03
-2.4893500000E+00,-4.083333E-03
-2.4893000000E+00,-2.708333E-03
-2.4892500000E+00,-4.458333E-03
-2.4892000000E+00,-4.250000E-03
-2.4891500000E+00,-4.375000E-03
-2.4891000000E+00,-4.791667E-03
-2.4890500000E+00,-5.583333E-03
-2.4890000000E+00,-5.208333E-03
-2.4889500000E+00,-5.750000E-03
-2.4889000000E+00,-5.416667E-03
-2.4888500000E+00,-5.500000E-03
-2.4888000000E+00,-5.208333E-03
-2.4887500000E+00,-6.666667E-03
-2.4887000000E+00,-5.708333E-03
-2.4886500000E+00,-5.291667E-03
-2.4886000000E+00,-5.666667E-03
-2.4885500000E+00,-6.375000E-03
-2.4885000000E+00,-6.833333E-03
-2.4884500000E+00,-6.208333E-03
-2.4884000000E+00,-5.416667E-03
-2.4883500000E+00,-5.125000E-03
-2.4883000000E+00,-5.416667E-03
-2.4882500000E+00,-5.083333E-03
-2.4882000000E+00,-4.916667E-03
-2.4881500000E+00,-3.666667E-03
-2.4881000000E+00,-5.208333E-03
-2.4880500000E+00,-4.166666E-03
-2.4880000000E+00,-5.000000E-03
-2.4879500000E+00,-3.791667E-03
-2.4879000000E+00,-3.041667E-03
-2.4878500000E+00,-5.416667E-03
-2.4878000000E+00,-3.708333E-03
-2.4877500000E+00,-3.916667E-03
-2.4877000000E+00,-3.458333E-03
-2.4876500000E+00,-2.958333E-03
-2.4876000000E+00,-3.125000E-03
-2.4875500000E+00,-3.083333E-03
-2.4875000000E+00,-2.666667E-03
-2.4874500000E+00,-2.125000E-03
-2.4874000000E+00,-2.041667E-03
-2.4873500000E+00,-3.291667E-03
-2.4873000000E+00,-1.833333E-03
-2.4872500000E+00,-2.875000E-03
-2.4872000000E+00,-2.125000E-03
-2.4871500000E+00,-2.083333E-03
-2.4871000000E+00,-2.416667E-03
-2.4870500000E+00,-1.833333E-03
-2.4870000000E+00,-7.083333E-04
-2.4869500000E+00,-2.750000E-03
-2.4869000000E+00,-2.458333E-03
-2.4868500000E+00,-2.625000E-03
-2.4868000000E+00,-2.000000E-03
-2.4867500000E+00,-3.583333E-03
-2.4867000000E+00,-2.375000E-03
-2.4866500000E+00,-2.083333E-03
-2.4866000000E+00,-4.125000E-03
-2.4865500000E+00,-3.708333E-03
-2.4865000000E+00,-3.458333E-03
-2.4864500000E+00,-2.750000E-03
-2.4864000000E+00,-1.625000E-03
-2.4863500000E+00,-9.166666E-04
-2.4863000000E+00,-3.083333E-03
-2.4862500000E+00,-1.916667E-03
-2.4862000000E+00,-2.416667E-03
-2.4861500000E+00,-1.833333E-03
-2.4861000000E+00,-1.500000E-03
-2.4860500000E+00,-2.750000E-03
-2.4860000000E+00,-2.291667E-03
-2.4859500000E+00,-2.083333E-03
-2.4859000000E+00,-3.125000E-03
-2.4858500000E+00,-2.041667E-03
-2.4858000000E+00,+1.041667E-03
-2.4857500000E+00,-2.166667E-03
-2.4857000000E+00,-4.708333E-03
-2.4856500000E+00,-1.500000E-03
-2.4856000000E+00,-2.583333E-03
-2.4855500000E+00,-3.958333E-03
-2.4855000000E+00,-2.125000E-03
-2.4854500000E+00,-2.166667E-03
-2.4854000000E+00,-1.083333E-03
-2.4853500000E+00,-1.416667E-03
-2.4853000000E+00,-5.000000E-04
-2.4852500000E+00,-1.708333E-03
-2.4852000000E+00,-1.083333E-03
-2.4851500000E+00,-8.333333E-05
-2.4851000000E+00,+2.083333E-04
-2.4850500000E+00,-9.166666E-04
-2.4850000000E+00,+4.166667E-05
-2.4849500000E+00,+3.333333E-04
-2.4849000000E+00,+9.583333E-04
-2.4848500000E+00,+2.041667E-03
-2.4848000000E+00,+1.791667E-03
-2.4847500000E+00,+1.125000E-03
-2.4847000000E+00,+7.500000E-04
-2.4846500000E+00,+2.333333E-03
-2.4846000000E+00,+2.208333E-03
-2.4845500000E+00,+1.750000E-03
-2.4845000000E+00,+1.833333E-03
-2.4844500000E+00,+1.208333E-03
-2.4844000000E+00,+1.125000E-03
-2.4843500000E+00,+1.333333E-03
-2.4843000000E+00,+3.000000E-03
-2.4842500000E+00,+1.708333E-03
-2.4842000000E+00,+2.083333E-03
-2.4841500000E+00,+1.875000E-03
-2.4841000000E+00,+1.458333E-03
-2.4840500000E+00,+1.333333E-03
-2.4840000000E+00,+1.625000E-03
-2.4839500000E+00,+3.041667E-03
-2.4839000000E+00,+2.625000E-03
-2.4838500000E+00,+2.625000E-03
-2.4838000000E+00,+1.500000E-03
-2.4837500000E+00,+2.750000E-03
-2.4837000000E+00,+2.833333E-03
-2.4836500000E+00,+2.041667E-03
-2.4836000000E+00,+1.083333E-03
-2.4835500000E+00,+2.083333E-03
-2.4835000000E+00,+1.708333E-03
-2.4834500000E+00,+5.833333E-04
-2.4834000000E+00,+4.166667E-05
-2.4833500000E+00,-5.833333E-04
-2.4833000000E+00,+7.083333E-04
-2.4832500000E+00,-4.166667E-04
-2.4832000000E+00,-2.500000E-04
-2.4831500000E+00,-8.333334E-04
-2.4831000000E+00,-1.791667E-03
-2.4830500000E+00,-1.125000E-03
-2.4830000000E+00,-9.583333E-04
-2.4829500000E+00,+1.250000E-04
-2.4829000000E+00,-3.333333E-04
-2.4828500000E+00,+1.250000E-04
-2.4828000000E+00,+1.166667E-03
-2.4827500000E+00,-8.333333E-05
-2.4827000000E+00,+3.666667E-03
-2.4826500000E+00,+1.208333E-03
-2.4826000000E+00,+1.208333E-03
-2.4825500000E+00,+2.083333E-04
-2.4825000000E+00,+8.333333E-05
-2.4824500000E+00,+2.500000E-04
-2.4824000000E+00,+7.500000E-04
-2.4823500000E+00,+8.333334E-04
-2.4823000000E+00,+1.791667E-03
-2.4822500000E+00,+2.500000E-04
-2.4822000000E+00,+1.208333E-03
-2.4821500000E+00,+2.708333E-03
-2.4821000000E+00,+1.333333E-03
-2.4820500000E+00,+1.333333E-03
-2.4820000000E+00,+1.750000E-03
-2.4819500000E+00,+2.000000E-03
-2.4819000000E+00,+3.916667E-03
-2.4818500000E+00,+1.875000E-03
-2.4818000000E+00,+4.791667E-03
-2.4817500000E+00,+2.916667E-04
-2.4817000000E+00,+3.958333E-03
-2.4816500000E+00,+3.541667E-03
-2.4816000000E+00,+3.666667E-03
-2.4815500000E+00,+3.750000E-03
-2.4815000000E+00,+3.083333E-03
-2.4814500000E+00,+3.666667E-03
-2.4814000000E+00,+2.500000E-03
-2.4813500000E+00,+4.000000E-03
-2.4813000000E+00,+4.041667E-03
-2.4812500000E+00,+3.583333E-03
-2.4812000000E+00,+4.875000E-03
-2.4811500000E+00,+3.916667E-03
-2.4811000000E+00,+3.666667E-03
-2.4810500000E+00,+3.083333E-03
-2.4810000000E+00,+4.291667E-03
-2.4809500000E+00,+3.708333E-03
-2.4809000000E+00,+4.333333E-03
-2.4808500000E+00,+2.666667E-03
-2.4808000000E+00,+3.208333E-03
-2.4807500000E+00,+3.916667E-03
-2.4807000000E+00,+1.583333E-03
-2.4806500000E+00,+1.708333E-03
-2.4806000000E+00,+4.250000E-03
-2.4805500000E+00,+2.291667E-03
-2.4805000000E+00,-2.500000E-04
-2.4804500000E+00,+1.958333E-03
-2.4804000000E+00,+2.250000E-03
-2.4803500000E+00,+1.958333E-03
-2.4803000000E+00,-5.833333E-04
-2.4802500000E+00,+2.583333E-03
-2.4802000000E+00,+4.125000E-03
-2.4801500000E+00,+1.875000E-03
-2.4801000000E+00,+1.666667E-03
-2.4800500000E+00,+1.791667E-03
-2.4800000000E+00,+1.333333E-03
-2.4799500000E+00,+3.250000E-03
-2.4799000000E+00,+2.708333E-03
-2.4798500000E+00,+1.375000E-03
-2.4798000000E+00,+1.541667E-03
-2.4797500000E+00,+1.458333E-03
-2.4797000000E+00,+1.791667E-03
-2.4796500000E+00,+2.833333E-03
-2.4796000000E+00,+5.125000E-03
-2.4795500000E+00,+3.791667E-03
-2.4795000000E+00,+4.791667E-03
-2.4794500000E+00,+4.708333E-03
-2.4794000000E+00,+4.875000E-03
-2.4793500000E+00,+4.875000E-03
-2.4793000000E+00,+5.791666E-03
-2.4792500000E+00,+6.208333E-03
-2.4792000000E+00,+6.083333E-03
-2.4791500000E+00,+5.416667E-03
-2.4791000000E+00,+5.708333E-03
-2.4790500000E+00,+5.791666E-03
-2.4790000000E+00,+6.208333E-03
-2.4789500000E+00,+6.125000E-03
-2.4789000000E+00,+6.250000E-03
-2.4788500000E+00,+6.750000E-03
-2.4788000000E+00,+8.125000E-03
-2.4787500000E+00,+6.791667E-03
-2.4787000000E+00,+9.041667E-03
-2.4786500000E+00,+7.125000E-03
-2.4786000000E+00,+5.791666E-03
-2.4785500000E+00,+5.875000E-03
-2.4785000000E+00,+6.166667E-03
-2.4784500000E+00,+7.541667E-03
-2.4784000000E+00,+6.708333E-03
-2.4783500000E+00,+6.833333E-03
-2.4783000000E+00,+6.916666E-03
-2.4782500000E+00,+5.791666E-03
-2.4782000000E+00,+6.625000E-03
-2.4781500000E+00,+5.083333E-03
-2.4781000000E+00,+3.000000E-03
-2.4780500000E+00,+2.083333E-03
-2.4780000000E+00,+2.916667E-03
-2.4779500000E+00,+3.208333E-03
-2.4779000000E+00,+2.875000E-03
-2.4778500000E+00,+3.208333E-03
-2.4778000000E+00,+1.791667E-03
-2.4777500000E+00,+1.041667E-03
-2.4777000000E+00,+1.583333E-03
-2.4776500000E+00,+1.291667E-03
-2.4776000000E+00,+1.250000E-03
-2.4775500000E+00,+9.166666E-04
-2.4775000000E+00,+3.750000E-04
-2.4774500000E+00,-2.916667E-04
-2.4774000000E+00,-3.750000E-04
-2.4773500000E+00,-1.125000E-03
-2.4773000000E+00,-2.500000E-04
-2.4772500000E+00,+1.458333E-03
-2.4772000000E+00,-1.708333E-03
-2.4771500000E+00,-1.125000E-03
-2.4771000000E+00,+1.666667E-04
-2.4770500000E+00,-4.166667E-04
-2.4770000000E+00,-7.500000E-04
-2.4769500000E+00,-2.208333E-03
-2.4769000000E+00,-1.250000E-04
-2.4768500000E+00,-8.333334E-04
-2.4768000000E+00,-5.833333E-04
-2.4767500000E+00,-4.166667E-04
-2.4767000000E+00,-5.833333E-04
-2.4766500000E+00,+1.375000E-03
-2.4766000000E+00,-5.833333E-04
-2.4765500000E+00,-9.166666E-04
-2.4765000000E+00,-1.458333E-03
-2.4764500000E+00,+8.333333E-05
-2.4764000000E+00,+7.500000E-04
-2.4763500000E+00,+1.166667E-03
-2.4763000000E+00,+8.333334E-04
-2.4762500000E+00,+8.750000E-04
-2.4762000000E+00,+8.750000E-04
-2.4761500000E+00,+4.583333E-04
-2.4761000000E+00,+1.666667E-03
-2.4760500000E+00,+2.583333E-03
-2.4760000000E+00,+2.166667E-03
-2.4759500000E+00,+1.583333E-03
-2.4759000000E+00,+1.625000E-03
-2.4758500000E+00,+2.333333E-03
-2.4758000000E+00,+2.791667E-03
-2.4757500000E+00,+2.000000E-03
-2.4757000000E+00,+2.458333E-03
-2.4756500000E+00,+2.458333E-03
-2.4756000000E+00,+3.250000E-03
-2.4755500000E+00,+2.875000E-03
-2.4755000000E+00,+2.750000E-03
-2.4754500000E+00,+2.250000E-03
-2.4754000000E+00,+1.541667E-03
-2.4753500000E+00,+3.083333E-03
-2.4753000000E+00,+2.666667E-03
-2.4752500000E+00,+1.583333E-03
-2.4752000000E+00,+2.000000E-03
-2.4751500000E+00,+2.625000E-03
-2.4751000000E+00,+1.041667E-03
-2.4750500000E+00,+1.583333E-03
-2.4750000000E+00,+1.041667E-03
-2.4749500000E+00,+9.166666E-04
-2.4749000000E+00,-1.250000E-04
-2.4748500000E+00,+1.250000E-04
-2.4748000000E+00,-2.500000E-04
-2.4747500000E+00,-7.083333E-04
-2.4747000000E+00,-5.000000E-04
-2.4746500000E+00,-3.750000E-04
-2.4746000000E+00,-9.583333E-04
-2.4745500000E+00,-1.291667E-03
-2.4745000000E+00,-2.166667E-03
-2.4744500000E+00,-1.041667E-03
-2.4744000000E+00,-1.791667E-03
-2.4743500000E+00,-1.791667E-03
-2.4743000000E+00,-2.583333E-03
-2.4742500000E+00,-1.958333E-03
-2.4742000000E+00,-2.125000E-03
-2.4741500000E+00,-2.250000E-03
-2.4741000000E+00,-1.458333E-03
-2.4740500000E+00,-2.458333E-03
-2.4740000000E+00,-1.875000E-03
-2.4739500000E+00,-2.000000E-03
-2.4739000000E+00,-1.958333E-03
-2.4738500000E+00,-1.708333E-03
-2.4738000000E+00,-1.625000E-03
-2.4737500000E+00,-1.750000E-03
-2.4737000000E+00,-7.916667E-04
-2.4736500000E+00,-1.291667E-03
-2.4736000000E+00,-4.166667E-04
-2.4735500000E+00,-1.041667E-03
-2.4735000000E+00,-5.416666E-04
-2.4734500000E+00,+3.750000E-04
-2.4734000000E+00,-8.333333E-05
-2.4733500000E+00,+5.833333E-04
-2.4733000000E+00,+1.208333E-03
-2.4732500000E+00,+1.416667E-03
-2.4732000000E+00,+1.333333E-03
-2.4731500000E+00,+1.541667E-03
-2.4731000000E+00,+5.833333E-04
-2.4730500000E+00,+2.791667E-03
-2.4730000000E+00,+3.041667E-03
-2.4729500000E+00,+2.958333E-03
-2.4729000000E+00,+2.083333E-03
-2.4728500000E+00,+3.666667E-03
-2.4728000000E+00,+2.833333E-03
-2.4727500000E+00,+2.958333E-03
-2.4727000000E+00,+2.541667E-03
-2.4726500000E+00,+3.166667E-03
-2.4726000000E+00,+2.875000E-03
-2.4725500000E+00,+2.958333E-03
-2.4725000000E+00,+2.791667E-03
-2.4724500000E+00,+2.291667E-03
-2.4724000000E+00,+2.416667E-03
-2.4723500000E+00,+2.166667E-03
-2.4723000000E+00,+2.333333E-03
-2.4722500000E+00,+2.166667E-03
-2.4722000000E+00,+2.083333E-03
-2.4721500000E+00,+1.500000E-03
-2.4721000000E+00,+1.041667E-03
-2.4720500000E+00,+1.333333E-03
-2.4720000000E+00,-1.666667E-04
-2.4719500000E+00,-4.166667E-04
-2.4719000000E+00,-8.333334E-04
-2.4718500000E+00,-9.166666E-04
-2.4718000000E+00,-7.083333E-04
-2.4717500000E+00,-1.875000E-03
-2.4717000000E+00,-9.166666E-04
-2.4716500000E+00,-1.958333E-03
-2.4716000000E+00,-1.708333E-03
-2.4715500000E+00,-1.541667E-03
-2.4715000000E+00,-2.625000E-03
-2.4714500000E+00,-2.333333E-03
-2.4714000000E+00,-2.416667E-03
-2.4713500000E+00,-2.208333E-03
-2.4713000000E+00,-2.125000E-03
-2.4712500000E+00,-2.750000E-03
-2.4712000000E+00,-3.250000E-03
-2.4711500000E+00,-2.000000E-03
-2.4711000000E+00,-2.083333E-03
-2.4710500000E+00,-3.458333E-03
-2.4710000000E+00,-2.833333E-03
-2.4709500000E+00,-1.541667E-03
-2.4709000000E+00,-1.541667E-03
-2.4708500000E+00,-1.541667E-03
-2.4708000000E+00,-1.625000E-03
-2.4707500000E+00,-1.083333E-03
-2.4707000000E+00,-4.166667E-04
-2.4706500000E+00,+1.250000E-04
-2.4706000000E+00,-9.583333E-04
-2.4705500000E+00,-1.666667E-04
-2.4705000000E+00,+3.750000E-04
-2.4704500000E+00,+7.916667E-04
-2.4704000000E+00,+9.166666E-04
-2.4703500000E+00,+1.541667E-03
-2.4703000000E+00,+4.583333E-04
-2.4702500000E+00,+1.791667E-03
-2.4702000000E+00,+1.500000E-03
-2.4701500000E+00,+2.750000E-03
-2.4701000000E+00,+2.250000E-03
-2.4700500000E+00,+2.041667E-03
-2.4700000000E+00,+2.541667E-03
-2.4699500000E+00,+2.708333E-03
-2.4699000000E+00,+2.750000E-03
-2.4698500000E+00,+3.041667E-03
-2.4698000000E+00,+2.208333E-03
-2.4697500000E+00,+3.375000E-03
-2.4697000000E+00,+3.000000E-03
-2.4696500000E+00,+3.333333E-03
-2.4696000000E+00,+3.500000E-03
-2.4695500000E+00,+3.041667E-03
-2.4695000000E+00,+2.458333E-03
-2.4694500000E+00,+2.416667E-03
-2.4694000000E+00,+1.500000E-03
-2.4693500000E+00,+1.958333E-03
-2.4693000000E+00,+1.791667E-03
-2.4692500000E+00,+9.166666E-04
