16-09/Data4_076mm.csv

Record Length,Analog:100000
Sample Interval,1.000000E-04
Vertical Units,V,
Vertical Scale,+5.000000E-02
Vertical Offset,+0.000000E+00
Horizontal Units,s
Horizontal Scale,+1.000000E+00
Model,SDS814X HD
Serial Number,SDS08A0D809841
Software Version,3.8.12.1.1.3.8
Source,CH1
Second,Value
-5.0200000000E+00,+0.000000E+00
-5.0199000000E+00,+2.083333E-04
-5.0198000000E+00,+0.000000E+00
-5.0197000000E+00,-9.375000E-04
-5.0196000000E+00,+3.125000E-04
-5.0195000000E+00,-1.041667E-04
-5.0194000000E+00,+7.291667E-04
-5.0193000000E+00,+6.250000E-04
-5.0192000000E+00,+5.208334E-04
-5.0191000000E+00,+3.125000E-04
-5.0190000000E+00,+1.041667E-04
-5.0189000000E+00,-4.166667E-04
-5.0188000000E+00,-5.208334E-04
-5.0187000000E+00,-2.083333E-04
-5.0186000000E+00,+8.333334E-04
-5.0185000000E+00,+4.166667E-04
-5.0184000000E+00,+3.125000E-04
-5.0183000000E+00,+8.333334E-04
-5.0182000000E+00,+5.208334E-04
-5.0181000000E+00,+2.083333E-04
-5.0180000000E+00,+4.166667E-04
-5.0179000000E+00,-3.125000E-04
-5.0178000000E+00,+5.208334E-04
-5.0177000000E+00,+1.041667E-04
-5.0176000000E+00,+0.000000E+00
-5.0175000000E+00,+3.125000E-04
-5.0174000000E+00,+1.041667E-04
-5.0173000000E+00,-1.041667E-04
-5.0172000000E+00,+5.208334E-04
-5.0171000000E+00,+1.041667E-04
-5.0170000000E+00,+2.083333E-04
-5.0169000000E+00,+4.166667E-04
-5.0168000000E+00,+4.166667E-04
-5.0167000000E+00,+0.000000E+00
-5.0166000000E+00,+9.375000E-04
-5.0165000000E+00,+5.208334E-04
-5.0164000000E+00,+5.208334E-04
-5.0163000000E+00,-1.041667E-04
-5.0162000000E+00,+2.083333E-04
-5.0161000000E+00,+4.166667E-04
-5.0160000000E+00,+4.166667E-04
-5.0159000000E+00,+5.208334E-04
-5.0158000000E+00,+3.125000E-04
-5.0157000000E+00,-5.208334E-04
-5.0156000000E+00,+3.125000E-04
-5.0155000000E+00,+8.333334E-04
-5.0154000000E+00,+3.125000E-04
-5.0153000000E+00,+6.250000E-04
-5.0152000000E+00,+4.166667E-04
-5.0151000000E+00,-2.083333E-04
-5.0150000000E+00,-5.208334E-04
-5.0149000000E+00,+2.083333E-04
-5.0148000000E+00,-3.125000E-04
-5.0147000000E+00,-1.145833E-03
-5.0146000000E+00,+0.000000E+00
-5.0145000000E+00,-1.041667E-04
-5.0144000000E+00,-1.041667E-04
-5.0143000000E+00,+4.166667E-04
-5.0142000000E+00,-5.208334E-04
-5.0141000000E+00,+5.208334E-04
-5.0140000000E+00,+1.250000E-03
-5.0139000000E+00,+1.041667E-04
-5.0138000000E+00,+4.166667E-04
-5.0137000000E+00,-9.375000E-04
-5.0136000000E+00,+0.000000E+00
-5.0135000000E+00,-5.208334E-04
-5.0134000000E+00,-5.208334E-04
-5.0133000000E+00,+6.250000E-04
-5.0132000000E+00,+3.125000E-04
-5.0131000000E+00,+4.166667E-04
-5.0130000000E+00,+6.250000E-04
-5.0129000000E+00,+0.000000E+00
-5.0128000000E+00,+0.000000E+00
-5.0127000000E+00,+1.041667E-04
-5.0126000000E+00,+4.166667E-04
-5.0125000000E+00,+0.000000E+00
-5.0124000000E+00,+2.083333E-04
-5.0123000000E+00,-2.083333E-04
-5.0122000000E+00,+9.375000E-04
-5.0121000000E+00,+3.125000E-04
-5.0120000000E+00,+0.000000E+00
-5.0119000000E+00,+1.041667E-03
-5.0118000000E+00,+2.083333E-04
-5.0117000000E+00,+0.000000E+00
-5.0116000000E+00,+4.166667E-04
-5.0115000000E+00,+0.000000E+00
-5.0114000000E+00,+2.083333E-04
-5.0113000000E+00,-3.125000E-04
-5.0112000000E+00,+7.291667E-04
-5.0111000000E+00,+1.145833E-03
-5.0110000000E+00,+4.166667E-04
-5.0109000000E+00,+2.083333E-04
-5.0108000000E+00,-7.291667E-04
-5.0107000000E+00,-3.125000E-04
-5.0106000000E+00,+6.250000E-04
-5.0105000000E+00,+2.083333E-04
-5.0104000000E+00,-2.083333E-04
-5.0103000000E+00,-2.083333E-04
-5.0102000000E+00,+1.041667E-04
-5.0101000000E+00,+2.083333E-04
-5.0100000000E+00,+6.250000E-04
-5.0099000000E+00,+1.145833E-03
-5.0098000000E+00,+1.041667E-04
-5.0097000000E+00,+3.125000E-04
-5.0096000000E+00,-2.083333E-04
-5.0095000000E+00,+0.000000E+00
-5.0094000000E+00,+1.041667E-04
-5.0093000000E+00,-2.083333E-04
-5.0092000000E+00,-4.166667E-04
-5.0091000000E+00,-1.041667E-04
-5.0090000000E+00,-1.041667E-04
-5.0089000000E+00,+1.041667E-04
-5.0088000000E+00,-7.291667E-04
-5.0087000000E+00,-3.125000E-04
-5.0086000000E+00,+2.083333E-04
-5.0085000000E+00,-2.083333E-04
-5.0084000000E+00,+0.000000E+00
-5.0083000000E+00,+4.166667E-04
-5.0082000000E+00,-6.250000E-04
-5.0081000000E+00,-2.083333E-04
-5.0080000000E+00,+2.083333E-04
-5.0079000000E+00,+1.041667E-03
-5.0078000000E+00,+0.000000E+00
-5.0077000000E+00,+1.041667E-04
-5.0076000000E+00,+6.250000E-04
-5.0075000000E+00,-3.125000E-04
-5.0074000000E+00,-3.125000E-04
-5.0073000000E+00,-1.041667E-04
-5.0072000000E+00,-5.208334E-04
-5.0071000000E+00,-1.041667E-04
-5.0070000000E+00,+2.083333E-04
-5.0069000000E+00,+1.041667E-04
-5.0068000000E+00,-3.125000E-04
-5.0067000000E+00,-3.125000E-04
-5.0066000000E+00,-5.208334E-04
-5.0065000000E+00,-4.166667E-04
-5.0064000000E+00,+3.125000E-04
-5.0063000000E+00,+6.250000E-04
-5.0062000000E+00,-2.083333E-04
-5.0061000000E+00,-1.041667E-04
-5.0060000000E+00,+8.333334E-04
-5.0059000000E+00,-7.291667E-04
-5.0058000000E+00,-2.083333E-04
-5.0057000000E+00,+4.166667E-04
-5.0056000000E+00,-5.208334E-04
-5.0055000000E+00,+2.083333E-04
-5.0054000000E+00,-1.041667E-04
-5.0053000000E+00,+1.041667E-03
-5.0052000000E+00,-2.083333E-04
-5.0051000000E+00,+2.083333E-04
-5.0050000000E+00,-7.291667E-04
-5.0049000000E+00,-5.208334E-04
-5.0048000000E+00,+4.166667E-04
-5.0047000000E+00,-5.208334E-04
-5.0046000000E+00,-1.041667E-03
-5.0045000000E+00,+7.291667E-04
-5.0044000000E+00,-3.125000E-04
-5.0043000000E+00,+2.083333E-04
-5.0042000000E+00,+3.125000E-04
-5.0041000000E+00,+2.083333E-04
-5.0040000000E+00,+4.166667E-04
-5.0039000000E+00,+3.125000E-04
-5.0038000000E+00,+2.083333E-04
-5.0037000000E+00,+1.041667E-03
-5.0036000000E+00,-6.250000E-04
-5.0035000000E+00,+1.041667E-04
-5.0034000000E+00,+1.250000E-03
-5.0033000000E+00,+6.250000E-04
-5.0032000000E+00,+3.125000E-04
-5.0031000000E+00,-5.208334E-04
-5.0030000000E+00,+8.333334E-04
-5.0029000000E+00,+8.333334E-04
-5.0028000000E+00,-7.291667E-04
-5.0027000000E+00,-2.083333E-04
-5.0026000000E+00,+3.125000E-04
-5.0025000000E+00,+5.208334E-04
-5.0024000000E+00,+1.041667E-04
-5.0023000000E+00,+8.333334E-04
-5.0022000000E+00,-4.166667E-04
-5.0021000000E+00,-1.250000E-03
-5.0020000000E+00,+1.041667E-04
-5.0019000000E+00,-3.125000E-04
-5.0018000000E+00,+2.083333E-04
-5.0017000000E+00,-2.083333E-04
-5.0016000000E+00,+0.000000E+00
-5.0015000000E+00,+5.208334E-04
-5.0014000000E+00,+6.250000E-04
-5.0013000000E+00,+2.083333E-04
-5.0012000000E+00,+5.208334E-04
-5.0011000000E+00,+3.125000E-04
-5.0010000000E+00,-2.083333E-04
-5.0009000000E+00,+8.333334E-04
-5.0008000000E+00,+1.041667E-04
-5.0007000000E+00,+5.208334E-04
-5.0006000000E+00,+5.208334E-04
-5.0005000000E+00,-1.041667E-04
-5.0004000000E+00,+7.291667E-04
-5.0003000000E+00,+1.041667E-04
-5.0002000000E+00,-9.375000E-04
-5.0001000000E+00,-3.125000E-04
-5.0000000000E+00,+2.083333E-04
-4.9999000000E+00,-4.166667E-04
-4.9998000000E+00,-3.125000E-04
-4.9997000000E+00,+0.000000E+00
-4.9996000000E+00,+0.000000E+00
-4.9995000000E+00,+0.000000E+00
-4.9994000000E+00,+6.250000E-04
-4.9993000000E+00,-2.083333E-04
-4.9992000000E+00,-3.125000E-04
-4.9991000000E+00,+1.250000E-03
-4.9990000000E+00,-1.041667E-04
-4.9989000000E+00,+4.166667E-04
-4.9988000000E+00,-2.083333E-04
-4.9987000000E+00,-1.041667E-04
-4.9986000000E+00,-6.250000E-04
-4.9985000000E+00,+5.208334E-04
-4.9984000000E+00,-5.208334E-04
-4.9983000000E+00,+4.166667E-04
-4.9982000000E+00,-1.145833E-03
-4.9981000000E+00,+5.208334E-04
-4.9980000000E+00,+3.125000E-04
-4.9979000000E+00,+7.291667E-04
-4.9978000000E+00,+1.041667E-04
-4.9977000000E+00,+2.083333E-04
-4.9976000000E+00,+3.125000E-04
-4.9975000000E+00,-5.208334E-04
-4.9974000000E+00,+3.125000E-04
-4.9973000000E+00,-3.125000E-04
-4.9972000000E+00,-2.083333E-04
-4.9971000000E+00,+1.041667E-04
-4.9970000000E+00,+1.041667E-04
-4.9969000000E+00,+3.125000E-04
-4.9968000000E+00,+7.291667E-04
-4.9967000000E+00,+1.041667E-04
-4.9966000000E+00,-6.250000E-04
-4.9965000000E+00,+0.000000E+00
-4.9964000000E+00,-1.041667E-04
-4.9963000000E+00,+1.041667E-04
-4.9962000000E+00,+5.208334E-04
-4.9961000000E+00,+4.166667E-04
-4.9960000000E+00,+3.125000E-04
-4.9959000000E+00,-3.125000E-04
-4.9958000000E+00,-3.125000E-04
-4.9957000000E+00,-3.125000E-04
-4.9956000000E+00,-4.166667E-04
-4.9955000000E+00,-2.083333E-04
-4.9954000000E+00,-2.083333E-04
-4.9953000000E+00,+5.208334E-04
-4.9952000000E+00,+8.333334E-04
-4.9951000000E+00,-2.083333E-04
-4.9950000000E+00,+8.333334E-04
-4.9949000000E+00,-2.083333E-04
-4.9948000000E+00,+2.083333E-04
-4.9947000000E+00,+9.375000E-04
-4.9946000000E+00,+1.041667E-04
-4.9945000000E+00,+4.166667E-04
-4.9944000000E+00,+1.041667E-04
-4.9943000000E+00,+1.041667E-04
-4.9942000000E+00,+8.333334E-04
-4.9941000000E+00,-2.083333E-04
-4.9940000000E+00,+1.041667E-04
-4.9939000000E+00,-3.125000E-04
-4.9938000000E+00,+2.083333E-04
-4.9937000000E+00,+7.291667E-04
-4.9936000000E+00,-3.125000E-04
-4.9935000000E+00,+5.208334E-04
-4.9934000000E+00,-3.125000E-04
-4.9933000000E+00,-1.041667E-04
-4.9932000000E+00,-9.375000E-04
-4.9931000000E+00,-4.166667E-04
-4.9930000000E+00,+3.125000E-04
-4.9929000000E+00,+2.083333E-04
-4.9928000000E+00,+8.333334E-04
-4.9927000000E+00,+2.083333E-04
-4.9926000000E+00,-1.041667E-04
-4.9925000000E+00,-5.208334E-04
-4.9924000000E+00,+0.000000E+00
-4.9923000000E+00,-3.125000E-04
-4.9922000000E+00,-4.166667E-04
-4.9921000000E+00,-1.145833E-03
-4.9920000000E+00,+5.208334E-04
-4.9919000000E+00,+1.041667E-04
-4.9918000000E+00,+8.333334E-04
-4.9917000000E+00,+1.041667E-04
-4.9916000000E+00,+6.250000E-04
-4.9915000000E+00,+4.166667E-04
-4.9914000000E+00,+2.083333E-04
-4.9913000000E+00,+1.041667E-04
-4.9912000000E+00,-5.208334E-04
-4.9911000000E+00,-4.166667E-04
-4.9910000000E+00,+0.000000E+00
-4.9909000000E+00,-3.125000E-04
-4.9908000000E+00,-2.083333E-04
-4.9907000000E+00,-1.041667E-04
-4.9906000000E+00,+7.291667E-04
-4.9905000000E+00,-2.083333E-04
-4.9904000000E+00,+5.208334E-04
-4.9903000000E+00,-4.166667E-04
-4.9902000000E+00,+8.333334E-04
-4.9901000000E+00,+1.041667E-04
-4.9900000000E+00,-8.333334E-04
-4.9899000000E+00,-6.250000E-04
-4.9898000000E+00,+2.083333E-04
-4.9897000000E+00,-5.208334E-04
-4.9896000000E+00,+5.208334E-04
-4.9895000000E+00,-6.250000E-04
-4.9894000000E+00,-1.041667E-04
-4.9893000000E+00,+5.208334E-04
-4.9892000000E+00,+1.041667E-04
-4.9891000000E+00,+6.250000E-04
-4.9890000000E+00,+1.041667E-03
-4.9889000000E+00,-4.166667E-04
-4.9888000000E+00,+5.208334E-04
-4.9887000000E+00,+4.166667E-04
-4.9886000000E+00,+1.041667E-04
-4.9885000000E+00,+0.000000E+00
-4.9884000000E+00,+2.083333E-04
-4.9883000000E+00,+5.208334E-04
-4.9882000000E+00,+9.375000E-04
-4.9881000000E+00,-4.166667E-04
-4.9880000000E+00,+4.166667E-04
-4.9879000000E+00,+0.000000E+00
-4.9878000000E+00,+4.166667E-04
-4.9877000000E+00,+5.208334E-04
-4.9876000000E+00,+1.041667E-04
-4.9875000000E+00,-6.250000E-04
-4.9874000000E+00,+0.000000E+00
-4.9873000000E+00,+6.250000E-04
-4.9872000000E+00,+0.000000E+00
-4.9871000000E+00,+0.000000E+00
-4.9870000000E+00,-3.125000E-04
-4.9869000000E+00,+0.000000E+00
-4.9868000000E+00,+4.166667E-04
-4.9867000000E+00,+3.125000E-04
-4.9866000000E+00,-3.125000E-04
-4.9865000000E+00,+5.208334E-04
-4.9864000000E+00,+5.208334E-04
-4.9863000000E+00,+8.333334E-04
-4.9862000000E+00,-5.208334E-04
-4.9861000000E+00,+1.041667E-04
-4.9860000000E+00,-4.166667E-04
-4.9859000000E+00,+0.000000E+00
-4.9858000000E+00,-1.041667E-04
-4.9857000000E+00,+2.083333E-04
-4.9856000000E+00,-4.166667E-04
-4.9855000000E+00,+1.041667E-04
-4.9854000000E+00,+6.250000E-04
-4.9853000000E+00,+1.041667E-04
-4.9852000000E+00,-6.250000E-04
-4.9851000000E+00,-5.208334E-04
-4.9850000000E+00,-2.083333E-04
-4.9849000000E+00,+5.208334E-04
-4.9848000000E+00,+0.000000E+00
-4.9847000000E+00,+2.083333E-04
-4.9846000000E+00,+3.125000E-04
-4.9845000000E+00,+1.041667E-04
-4.9844000000E+00,+0.000000E+00
-4.9843000000E+00,+4.166667E-04
-4.9842000000E+00,+4.166667E-04
-4.9841000000E+00,+2.083333E-04
-4.9840000000E+00,-4.166667E-04
-4.9839000000E+00,+5.208334E-04
-4.9838000000E+00,+1.145833E-03
-4.9837000000E+00,+6.250000E-04
-4.9836000000E+00,-1.041667E-04
-4.9835000000E+00,-4.166667E-04
-4.9834000000E+00,-2.083333E-04
-4.9833000000E+00,-1.041667E-04
-4.9832000000E+00,+4.166667E-04
-4.9831000000E+00,+2.083333E-04
-4.9830000000E+00,-5.208334E-04
-4.9829000000E+00,+6.250000E-04
-4.9828000000E+00,+0.000000E+00
-4.9827000000E+00,+6.250000E-04
-4.9826000000E+00,-8.333334E-04
-4.9825000000E+00,-4.166667E-04
-4.9824000000E+00,+2.083333E-04
-4.9823000000E+00,+2.083333E-04
-4.9822000000E+00,-5.208334E-04
-4.9821000000E+00,+0.000000E+00
-4.9820000000E+00,-4.166667E-04
-4.9819000000E+00,-3.125000E-04
-4.9818000000E+00,+5.208334E-04
-4.9817000000E+00,-1.041667E-04
-4.9816000000E+00,+0.000000E+00
-4.9815000000E+00,+5.208334E-04
-4.9814000000E+00,+9.375000E-04
-4.9813000000E+00,-1.041667E-04
-4.9812000000E+00,+1.041667E-04
-4.9811000000E+00,+2.083333E-04
-4.9810000000E+00,+2.083333E-04
-4.9809000000E+00,+9.375000E-04
-4.9808000000E+00,-1.041667E-04
-4.9807000000E+00,+1.041667E-04
-4.9806000000E+00,+6.250000E-04
-4.9805000000E+00,-4.166667E-04
-4.9804000000E+00,+1.041667E-04
-4.9803000000E+00,+6.250000E-04
-4.9802000000E+00,+4.166667E-04
-4.9801000000E+00,+8.333334E-04
-4.9800000000E+00,+3.125000E-04
-4.9799000000E+00,+4.166667E-04
-4.9798000000E+00,-2.083333E-04
-4.9797000000E+00,-8.333334E-04
-4.9796000000E+00,-1.041667E-04
-4.9795000000E+00,-1.041667E-04
-4.9794000000E+00,-1.041667E-04
-4.9793000000E+00,+7.291667E-04
-4.9792000000E+00,+3.125000E-04
-4.9791000000E+00,+2.083333E-04
-4.9790000000E+00,-9.375000E-04
-4.9789000000E+00,+0.000000E+00
-4.9788000000E+00,+7.291667E-04
-4.9787000000E+00,-2.083333E-04
-4.9786000000E+00,+1.041667E-04
-4.9785000000E+00,+5.208334E-04
-4.9784000000E+00,+0.000000E+00
-4.9783000000E+00,+3.125000E-04
-4.9782000000E+00,+8.333334E-04
-4.9781000000E+00,-3.125000E-04
-4.9780000000E+00,-2.083333E-04
-4.9779000000E+00,+4.166667E-04
-4.9778000000E+00,+6.250000E-04
-4.9777000000E+00,+4.166667E-04
-4.9776000000E+00,+3.125000E-04
-4.9775000000E+00,+1.145833E-03
-4.9774000000E+00,+7.291667E-04
-4.9773000000E+00,-3.125000E-04
-4.9772000000E+00,-1.041667E-04
-4.9771000000E+00,+0.000000E+00
-4.9770000000E+00,-3.125000E-04
-4.9769000000E+00,+2.083333E-04
-4.9768000000E+00,+3.125000E-04
-4.9767000000E+00,+0.000000E+00
-4.9766000000E+00,+0.000000E+00
-4.9765000000E+00,+2.083333E-04
-4.9764000000E+00,-1.041667E-04
-4.9763000000E+00,-4.166667E-04
-4.9762000000E+00,+0.000000E+00
-4.9761000000E+00,-4.166667E-04
-4.9760000000E+00,+9.375000E-04
-4.9759000000E+00,+3.125000E-04
-4.9758000000E+00,+3.125000E-04
-4.9757000000E+00,+2.083333E-04
-4.9756000000E+00,+3.125000E-04
-4.9755000000E+00,-6.250000E-04
-4.9754000000E+00,+2.083333E-04
-4.9753000000E+00,+1.041667E-04
-4.9752000000E+00,+0.000000E+00
-4.9751000000E+00,+6.250000E-04
-4.9750000000E+00,+2.083333E-04
-4.9749000000E+00,+3.125000E-04
-4.9748000000E+00,+3.125000E-04
-4.9747000000E+00,-8.333334E-04
-4.9746000000E+00,+1.041667E-04
-4.9745000000E+00,+3.125000E-04
-4.9744000000E+00,-4.166667E-04
-4.9743000000E+00,-1.041667E-04
-4.9742000000E+00,+7.291667E-04
-4.9741000000E+00,+5.208334E-04
-4.9740000000E+00,-1.145833E-03
-4.9739000000E+00,+1.041667E-04
-4.9738000000E+00,+1.666667E-03
-4.9737000000E+00,+4.166667E-04
-4.9736000000E+00,+1.041667E-03
-4.9735000000E+00,-9.375000E-04
-4.9734000000E+00,+1.041667E-03
-4.9733000000E+00,+4.166667E-04
-4.9732000000E+00,+3.125000E-04
-4.9731000000E+00,-3.125000E-04
-4.9730000000E+00,+3.125000E-04
-4.9729000000E+00,+5.208334E-04
-4.9728000000E+00,+7.291667E-04
-4.9727000000E+00,+2.083333E-04
-4.9726000000E+00,+7.291667E-04
-4.9725000000E+00,-3.125000E-04
-4.9724000000E+00,+4.166667E-04
-4.9723000000E+00,+0.000000E+00
-4.9722000000E+00,-6.250000E-04
-4.9721000000E+00,-7.291667E-04
-4.9720000000E+00,+2.083333E-04
-4.9719000000E+00,+0.000000E+00
-4.9718000000E+00,+2.083333E-04
-4.9717000000E+00,+8.333334E-04
-4.9716000000E+00,+3.125000E-04
-4.9715000000E+00,-1.041667E-04
-4.9714000000E+00,+0.000000E+00
-4.9713000000E+00,-3.125000E-04
-4.9712000000E+00,+8.333334E-04
-4.9711000000E+00,-9.375000E-04
-4.9710000000E+00,-3.125000E-04
-4.9709000000E+00,-3.125000E-04
-4.9708000000E+00,+0.000000E+00
-4.9707000000E+00,+0.000000E+00
-4.9706000000E+00,+4.166667E-04
-4.9705000000E+00,-2.083333E-04
-4.9704000000E+00,+0.000000E+00
-4.9703000000E+00,+1.041667E-04
-4.9702000000E+00,+1.041667E-04
-4.9701000000E+00,+4.166667E-04
-4.9700000000E+00,-8.333334E-04
-4.9699000000E+00,-8.333334E-04
-4.9698000000E+00,-5.208334E-04
-4.9697000000E+00,+6.250000E-04
-4.9696000000E+00,+3.125000E-04
-4.9695000000E+00,+6.250000E-04
-4.9694000000E+00,-3.125000E-04
-4.9693000000E+00,+1.041667E-04
-4.9692000000E+00,+4.166667E-04
-4.9691000000E+00,-3.125000E-04
-4.9690000000E+00,+2.083333E-04
-4.9689000000E+00,+1.041667E-04
-4.9688000000E+00,+1.041667E-04
-4.9687000000E+00,+1.041667E-04
-4.9686000000E+00,+1.041667E-04
-4.9685000000E+00,+2.083333E-04
-4.9684000000E+00,+3.125000E-04
-4.9683000000E+00,+3.125000E-04
-4.9682000000E+00,-5.208334E-04
-4.9681000000E+00,-3.125000E-04
-4.9680000000E+00,+8.333334E-04
-4.9679000000E+00,+1.041667E-04
-4.9678000000E+00,+6.250000E-04
-4.9677000000E+00,+4.166667E-04
-4.9676000000E+00,+4.166667E-04
-4.9675000000E+00,-2.083333E-04
-4.9674000000E+00,+7.291667E-04
-4.9673000000E+00,-1.041667E-04
-4.9672000000E+00,-2.083333E-04
-4.9671000000E+00,-2.083333E-04
-4.9670000000E+00,+5.208334E-04
-4.9669000000E+00,+4.166667E-04
-4.9668000000E+00,+0.000000E+00
-4.9667000000E+00,+3.125000E-04
-4.9666000000E+00,-2.083333E-04
-4.9665000000E+00,+3.125000E-04
-4.9664000000E+00,+0.000000E+00
-4.9663000000E+00,-1.041667E-04
-4.9662000000E+00,+4.166667E-04
-4.9661000000E+00,+0.000000E+00
-4.9660000000E+00,+3.125000E-04
-4.9659000000E+00,-8.333334E-04
-4.9658000000E+00,+4.166667E-04
-4.9657000000E+00,-1.041667E-04
-4.9656000000E+00,+2.083333E-04
-4.9655000000E+00,+1.041667E-04
-4.9654000000E+00,+5.208334E-04
-4.9653000000E+00,+0.000000E+00
-4.9652000000E+00,+2.083333E-04
-4.9651000000E+00,+7.291667E-04
-4.9650000000E+00,-8.333334E-04
-4.9649000000E+00,+6.250000E-04
-4.9648000000E+00,-3.125000E-04
-4.9647000000E+00,+2.083333E-04
-4.9646000000E+00,-3.125000E-04
-4.9645000000E+00,+1.041667E-04
-4.9644000000E+00,+6.250000E-04
-4.9643000000E+00,-1.041667E-04
-4.9642000000E+00,+6.250000E-04
-4.9641000000E+00,+0.000000E+00
-4.9640000000E+00,+4.166667E-04
-4.9639000000E+00,-1.354167E-03
-4.9638000000E+00,+8.333334E-04
-4.9637000000E+00,-4.166667E-04
-4.9636000000E+00,-9.375000E-04
-4.9635000000E+00,+4.166667E-04
-4.9634000000E+00,+6.250000E-04
-4.9633000000E+00,-1.041667E-04
-4.9632000000E+00,+3.125000E-04
-4.9631000000E+00,-5.208334E-04
-4.9630000000E+00,+4.166667E-04
-4.9629000000E+00,-6.250000E-04
-4.9628000000E+00,+0.000000E+00
-4.9627000000E+00,-5.208334E-04
-4.9626000000E+00,-4.166667E-04
-4.9625000000E+00,-2.083333E-04
-4.9624000000E+00,+6.250000E-04
-4.9623000000E+00,+1.041667E-04
-4.9622000000E+00,+1.354167E-03
-4.9621000000E+00,+0.000000E+00
-4.9620000000E+00,+1.041667E-04
-4.9619000000E+00,-2.083333E-04
-4.9618000000E+00,+3.125000E-04
-4.9617000000E+00,-4.166667E-04
-4.9616000000E+00,-3.125000E-04
-4.9615000000E+00,+5.208334E-04
-4.9614000000E+00,+5.208334E-04
-4.9613000000E+00,+0.000000E+00
-4.9612000000E+00,-4.166667E-04
-4.9611000000E+00,+5.208334E-04
-4.9610000000E+00,-7.291667E-04
-4.9609000000E+00,+3.125000E-04
-4.9608000000E+00,+5.208334E-04
-4.9607000000E+00,+3.125000E-04
-4.9606000000E+00,+5.208334E-04
-4.9605000000E+00,+1.041667E-04
-4.9604000000E+00,+0.000000E+00
-4.9603000000E+00,+7.291667E-04
-4.9602000000E+00,+2.083333E-04
-4.9601000000E+00,+7.291667E-04
-4.9600000000E+00,+8.333334E-04
-4.9599000000E+00,+5.208334E-04
-4.9598000000E+00,+2.083333E-04
-4.9597000000E+00,+6.250000E-04
-4.9596000000E+00,+4.166667E-04
-4.9595000000E+00,-7.291667E-04
-4.9594000000E+00,+5.208334E-04
-4.9593000000E+00,-4.166667E-04
-4.9592000000E+00,-3.125000E-04
-4.9591000000E+00,+6.250000E-04
-4.9590000000E+00,-5.208334E-04
-4.9589000000E+00,+5.208334E-04
-4.9588000000E+00,+4.166667E-04
-4.9587000000E+00,+3.125000E-04
-4.9586000000E+00,+1.562500E-03
-4.9585000000E+00,-7.291667E-04
